;O(g);O2(g);Mg(g);MgO(g);Mg2(g);Ca(g);CaO(g);Ca2(g);Al(g);AlO(g);AlO2(g);Al2(g);Al2O(g);Al2O2(g);Si(g);SiO(g);SiO2(g);Si2(g);Si3(g);Na(g);NaO(g);Na2(g);K(g);KO(g);K2(g);Fe(g);FeO(g);TiO(g);Ti(g);TiO2(g);Cr(g);CrO(g);CrO2(g);CrO3(g)
1547;-10.246428191938385;-10.246388366881243;-inf;-inf;-inf;-14.341690451172584;-17.09332641186836;-31.52851324839889;-16.853511514943474;-15.773410213195866;-19.068443824816733;-32.89984124998167;-21.065195193982728;-21.496353072873543;-19.247518015170417;-9.060993990058968;-11.576404105870306;-33.73834425175371;-46.180423338260226;-inf;-inf;-inf;-inf;-inf;-inf;-inf;-inf;-inf;-inf;-inf;-inf;-inf;-inf;-inf
1873;-7.215623175982571;-7.178013119952986;-inf;-inf;-inf;-10.938877096283287;-12.851565756727467;-24.94547457444859;-12.611500988464007;-11.546931234276677;-14.168323049552217;-25.43233499398875;-15.76949870970242;-16.107417963748798;-14.465623389080713;-6.007271869507438;-8.156416669488701;-26.001665665760665;-36.05421188389739;-inf;-inf;-inf;-inf;-inf;-inf;-inf;-inf;-inf;-inf;-inf;-inf;-inf;-inf;-inf
