,SiO(g),Na(g),K(g),O2(g),SiO2(g),O(g),Fe(g),FeO(g),Mg(g),KO(g),NaO(g),MgO(g)
500.0,-60.1297764148553,-34.60088039009741,-37.33792913673537,-20.5158220949669,-51.577209998645735,-33.194604369130246,-49.13359522626739,-44.426028893632534,-59.40022430867724,-45.75493020530109,-46.0207563669729,-62.4653314179295
525.0,-56.41957947312043,-32.48240158189678,-35.067990820596776,-19.931132342559536,-48.679097228075676,-31.65564513847098,-46.057052905239125,-41.881990467500344,-55.74013658608605,-43.33839437704913,-43.623330567297074,-58.94616192301896
550.0,-53.06626106491095,-30.569410689829702,-33.018790272857004,-19.364706431592047,-46.04623878086602,-30.238664100891288,-43.28434839767389,-39.57640730297488,-52.43885731676208,-41.1384290359635,-41.439320622933565,-55.75472767679471
575.0,-50.022256473667994,-28.83434365075279,-31.160652527444352,-18.816005796601278,-43.64394522904608,-28.928690056350614,-40.77449326827182,-37.477725568920135,-49.44814928113235,-39.12682299993609,-39.44104287111673,-52.847771935867804
600.0,-47.247972958455605,-27.254282088468155,-29.46891360806088,-18.284504292809366,-41.443314638279055,-27.71320785445094,-38.493413504480536,-35.55969518340049,-46.727904272318,-37.28009370389999,-37.60544098948945,-50.18929850770208
625.0,-44.71019394121711,-25.810019296345487,-27.922911531070493,-17.769688030059683,-39.42007480843549,-26.581668350718697,-36.41255970051967,-33.80030328545621,-44.244509598286086,-35.57853582943611,-35.913156800204405,-47.74911309730616
650.0,-42.38085145009513,-24.485342470464875,-26.505211192975626,-17.27105520675273,-37.55369266184227,-25.525111430737383,-34.5078389137719,-32.18095475521866,-41.969592607673235,-34.00549050133341,-34.34781619273603,-45.50170230969593
675.0,-40.236071359411454,-23.266474994134388,-25.201002305495493,-16.788115943782014,-35.82668153308874,-24.5358727882436,-32.758784620518014,-30.685835556312572,-39.87904503495235,-32.54677766683639,-32.895474259688996,-43.42536256955111
700.0,-38.25542323659092,-22.141638661011555,-23.997626967580256,-16.320392118469965,-34.22405689445024,-23.60735351869556,-31.147905114553975,-29.301413063347667,-37.95225706220967,-31.190250713142287,-31.54417974242721,-41.50151633087031
725.0,-36.42132541426059,-21.100706810885715,-22.884205470933274,-15.867417198503833,-32.732904693756176,-22.733837365958824,-29.660167176988637,-28.016040209851578,-36.171510364660705,-29.925443705610213,-30.28362991235547,-39.714170257073135
750.0,-34.71856907217893,-20.13492710791318,-21.851337333069953,-15.428736075871592,-31.34203603232799,-21.91034450304836,-28.28258337827214,-26.81963915619998,-34.52149295856939,-28.743289550363144,-29.104894728947635,-38.049482159981956
775.0,-33.133934458153774,-19.23669819160251,-20.890860506050398,-15.003904900797837,-30.041708689188166,-21.132513597301575,-27.003879553385577,-25.70344646317248,-32.98890828224045,-27.635893001097482,-28.000194587397548,-36.495412073664994
800.0,-31.655879093873047,-18.399388381783556,-19.99565598469594,-14.592490915679674,-28.82340087024662,-20.39650597276275,-25.814224867077215,-24.659806271542877,-31.56215784564969,-26.596346462668585,-26.96271989906031,-35.04143900768936
825.0,-30.27428269677197,-17.617187490355732,-19.159488144905314,-14.194072289022634,-27.679626105089234,-19.698927182491804,-24.705011157036175,-23.68200126917305,-30.23108180330923,-25.618579474157592,-25.986483604399368,-33.678329407853475
850.0,-28.980237141310152,-16.88498490270191,-18.376873425068773,-13.808237949376572,-26.603780820008215,-19.036762406401195,-23.668671381572555,-22.764113637856887,-28.986745493448232,-24.697234906603896,-25.066199817205487,-32.397946647194146
875.0,-27.765872451693557,-16.19826865815285,-17.642971657572147,-13.434587419271551,-25.590018051942607,-18.4073229095152,-22.698529328651514,-21.9009099617134,-27.821262725137277,-23.827566508081844,-24.197183357151353,-31.19309331610426
900.0,-26.624211819664502,-15.553041433015608,-16.953495626758183,-13.07273064915376,-24.63314222011171,-17.808201410014053,-21.788674489863002,-21.087745420116768,-26.72764864779815,-23.005353625800552,-23.375266095723074,-30.057379913831696
925.0,-25.549050155761112,-14.945750217649989,-16.3046353894887,-12.722287851321413,-23.7285209710842,-17.237234671427846,-20.933857324023688,-20.320483602368032,-25.699696590196023,-22.226829839912025,-22.596726923885978,-28.985114930268093
950.0,-24.534851838507212,-14.373227156312312,-15.692994626274471,-12.382889333860627,-22.872010951749957,-16.692471988215786,-20.129401142768604,-19.595429054761432,-24.73187444030331,-21.48862293373788,-21.858232823524844,-27.971212364530974
975.0,-23.576664215299395,-13.832639539112819,-15.115536853399705,-12.054175334581359,-22.059895009863848,-16.172148506943806,-19.37112762518507,-18.9092702652305,-23.819237047937367,-20.787704155432305,-21.156789042593346,-27.011113539896662
1000.0,-22.67004409799108,-13.321447338666351,-14.569539762002007,-11.735795854953265,-21.288828821883197,-15.674662536830589,-18.6552935686002,-18.259031251191026,-22.957351837349353,-20.121345136715007,-20.489696775023248,-26.100720704385214
1025.0,-21.810995034124772,-12.837366998542336,-14.052556289706587,-11.427410494041633,-20.555795338119115,-15.198556168550596,-17.978536950714126,-17.642030275302396,-22.142235367113845,-19.48708115449712,-19.854517059317114,-25.23634039752012
1050.0,-20.995913557448624,-12.378340427595266,-13.562381297054431,-11.128688282443262,-19.85806574189316,-14.74249864991769,-17.337830745850102,-17.055844495822843,-21.370299006718188,-18.882679672583404,-19.24903985542519,-24.414634949515914
1075.0,-20.221542955575828,-11.942508349419903,-13.097022931611221,-10.839307516222373,-19.19316586188276,-14.305272069655024,-16.7304432285755,-16.498279581014188,-20.63830224069504,-18.30611329919856,-18.671257453643005,-23.632580783967562
1100.0,-19.484933358506726,-11.528187311325606,-12.654677930073335,-10.558955590846498,-18.558847169731404,-13.885758982055506,-16.15390372889168,-15.967343494140502,-19.94331238260358,-17.755536453903854,-18.119341523599754,-22.887432437444676
1125.0,-18.783407164425384,-11.13384978126827,-12.233710242514912,-10.287328835122397,-17.953061649317217,-13.482931670616658,-15.605972987844005,-15.461223797174881,-19.28266969822237,-17.229265163609135,-17.591623234798195,-22.176691403144538
1150.0,-18.11452899026065,-10.758106860893614,-11.832632470479455,-10.024132345131948,-17.373939948198597,-13.095842801240613,-15.08461741084971,-14.978267935120263,-18.65395711181571,-16.725759508760202,-17.086575979356255,-21.498079061511067
1175.0,-17.476079472821585,-10.399693223417547,-11.450089697509485,-9.769079818168038,-16.819772322112932,-12.723617258042816,-14.587986635997654,-14.516966054788313,-18.054973810348535,-16.24360832267133,-16.60280030774785,-20.84951308658296
1200.0,-16.866032358700284,-10.0574539504961,-11.084845361250615,-9.521893386670481,-16.288991964943268,-12.365444989305612,-14.114393931986841,-14.075935986528172,-17.48371217503821,-15.781515813452806,-16.139010753421708,-20.229086819033054
1225.0,-16.282534412877222,-9.730332995614356,-10.735768873805114,-9.282303452161901,-15.780160383130912,-12.02057471927034,-13.662299019847751,-13.653910078290428,-16.938337563064795,-15.338289832205723,-15.694024275272074,-19.635051180241383
1250.0,-15.723887751191318,-9.417363045267756,-10.401824744155588,-9.05004851918364,-15.291954528091958,-11.688308404550519,-13.230292977729405,-13.249723621311782,-16.417170538837613,-14.912831555582,-15.266750090448234,-19.065798770077024
1275.0,-15.188534263787458,-9.117656585212487,-10.082062995273057,-8.824875029231674,-14.823155445143323,-11.367996332963273,-12.817084941648298,-12.862304647769944,-15.918671217245937,-14.50412638736205,-14.856180705802398,-18.519849847305714
1300.0,-14.675041847882598,-8.830398008815827,-9.775610700578948,-8.606537194692455,-14.372638234611399,-11.059032778299507,-12.421490359408015,-12.490664914693225,-15.441425433418102,-14.111235913905237,-14.461383985872665,-17.995839938022392
1325.0,-14.182092210718729,-8.554836629225056,-9.481664491021341,-8.394796832778916,-13.939363151651325,-10.760852137607174,-12.04242059166557,-12.133891916561575,-14.984132496739138,-13.733290773382288,-14.08149611985457,-17.49250885607384
1350.0,-13.708470039010349,-8.290280477634603,-9.19948390616749,-8.189423199466242,-13.522367697016394,-10.472925488439328,-11.678873684744772,-11.791141792480504,-14.545594322882119,-13.369484319558433,-13.715715370466972,-17.008690951557526
1375.0,-13.25305336083298,-8.036090787117491,-8.928385481219367,-7.990192823427872,-13.12075957252086,-10.194757512617256,-11.329926165395909,-11.461633013404015,-14.124705767706484,-13.019066978329926,-13.363296504713505,-16.54330643033291
1400.0,-12.814804950773853,-7.7916770759036025,-8.667737477377417,-7.796889339971358,-12.733710392985666,-9.925883740693994,-10.994725729175643,-11.14464075131749,-13.720446012123604,-12.681341209835201,-13.02354582088056,-16.095353610002384
1425.0,-12.392764650112532,-7.556492756120365,-8.416955176036138,-7.609303324974256,-12.360450061653333,-9.665868077734164,-10.672484712194564,-10.839491846121424,-13.33187086828192,-12.355657001263207,-12.695816698181748,-15.663901996775154
1450.0,-11.986042491494766,-7.3300312042558025,-8.175496668319127,-7.427232128820062,-12.000261728896119,-9.41430057645808,-10.362474251241977,-10.545560297633543,-12.958105895367478,-12.041407825865479,-12.379505605648612,-15.248086083631604
1475.0,-11.593812532558148,-7.111822238281066,-7.9428590807958575,-7.250479710334048,-11.652477264920101,-9.17079542840183,-10.064019050223829,-10.262263220015072,-12.598340228516083,-11.738027012471115,-12.074048515498433,-14.847099783762433
1500.0,-11.215344627024653,-6.901410298085242,-7.718537874841791,-7.078856470719244,-11.316510497725105,-8.934989147658174,-9.776474026177388,-9.989038548671626,-12.251802381590442,-11.444947165962033,-11.778899017886632,-14.460172769116927
1525.0,-10.849997336445485,-6.6983526502526685,-7.502025900050265,-6.912179087492284,-10.991851439267732,-8.70653892509876,-9.499221135579917,-9.725342814931615,-11.917756313676124,-11.161599321719962,-11.49352645829514,-14.086567011804018
1550.0,-10.49710034704838,-6.502273367589531,-7.292923735897966,-6.750270348419301,-10.677949881489852,-8.485121133829804,-9.23172211367483,-9.470704733928983,-11.595553482561808,-10.887523370514042,-11.21746984815617,-13.725629258483886
1575.0,-10.156026565374676,-6.31282293776441,-7.090861059529038,-6.592958985451875,-10.374288550925963,-8.27042996907754,-8.973476965749436,-9.224684455714883,-11.284590715884622,-10.622289493673362,-10.95029740324436,-13.376749274429923
1600.0,-9.826190775606337,-6.129675008188964,-6.895492079393908,-6.44007950866286,-10.080382717937857,-8.062176207800093,-8.724019703994816,-8.986869982932728,-10.984305386352977,-10.365493650012274,-10.691603217110504,-13.039355348923031
1625.0,-9.50704626153222,-5.952524520586159,-6.706493563976194,-6.2914720401823505,-9.795777675055602,-7.860086075132289,-8.482915571566474,-8.756875005185123,-10.694172126338437,-10.116755645260552,-10.441005323133526,-12.712911301873122
1650.0,-9.198081744717193,-5.7810860198649054,-6.523563054468462,-6.146982148133583,-9.520046446120787,-7.663900206332545,-8.249758528074205,-8.53433693179918,-10.413699850507438,-9.875717374193748,-10.198143929922812,-12.396913764383966
1675.0,-8.898818605721395,-5.6150921190192875,-6.346417242105771,-6.006460680568752,-9.252787702001703,-7.473372694253987,-8.024168969074191,-8.31891510214864,-10.14242905417407,-9.642041217347826,-9.962679811889071,-12.090889704504786
1700.0,-8.608808359127648,-5.454292103927632,-6.1747904931426705,-5.869763599405001,-8.993623861511285,-7.288270213535944,-7.805791655372762,-8.110289155152795,-9.87992935886909,-9.415408576340926,-9.734292838947033,-11.794394172807284
1725.0,-8.327630356534454,-5.298450663801573,-6.008433506436273,-5.736751814360302,-8.74219935864523,-7.108371213732501,-7.594293830765105,-7.908157541712318,-9.625797279935831,-9.19551853368139,-9.512680631178133,-11.507008245377293
1750.0,-8.05488969463366,-5.147346734668926,-5.847112090323376,-5.607291016889313,-8.498179059423835,-6.933465174484408,-7.389363509282799,-7.712236165705695,-9.379654193851826,-8.982086624562102,-9.297557325905922,-11.228337144381197
1775.0,-7.790215308076881,-5.000772444699848,-5.690606046982203,-5.481251514119314,-8.261246813511665,-6.763351916617432,-7.190707915163881,-7.522257140797126,-9.141144485496392,-8.774843709552187,-9.088652446054883,-10.958008518611273
1800.0,-7.533258229096455,-4.8585321514330815,-5.538708153786413,-5.358508062786121,-8.03110412744299,-6.597840963729867,-6.9980520606301075,-7.337967651729182,-8.909933857788813,-8.573534938334191,-8.885709859904061,-10.695670868375835
1825.0,-7.283689997828448,-4.7204415620524,-5.3912232323126394,-5.238939703169925,-7.807468947729796,-6.436750949427679,-6.811137448196714,-7.159128910020659,-8.685707788055609,-8.377918795718134,-8.688486823433836,-10.44099210082106
1850.0,-7.041201209026064,-4.586326928822643,-5.247967296674371,-5.122429593031262,-7.590074543402094,-6.279909065889431,-6.629720885679147,-6.985515195084243,-8.468170117180875,-8.187766222113947,-8.496753097418658,-10.193658203280318
1875.0,-6.805500182382465,-4.456024312639801,-5.108766773747388,-5.008864841546904,-7.37866847864894,-6.127150549903402,-6.453573403329107,-6.816912972741925,-8.257041759087484,-8.002859801481828,-8.310290132258709,-9.95337202357585
1900.0,-6.576311745031747,-4.329378908393171,-4.973457788636055,-4.898136343245664,-7.173011667215138,-5.978318202925511,-6.2824792636476925,-6.6531200839640166,-8.052059519412179,-7.822993010516258,-8.128890314283023,-9.719852147368028
1925.0,-6.353376115987775,-4.206244426494704,-4.841885509423234,-4.79013861194445,-6.9728775010792035,-5.833261942065412,-6.116235055409496,-6.493944997406867,-7.852975013398414,-7.647969523470901,-7.952356267910344,-9.492831863680403
1950.0,-6.1364478833344664,-4.086482525511801,-4.713903545860436,-4.684769614684019,-6.77805104670799,-5.691838379224927,-5.954648864302789,-6.3392061199861525,-7.6595536740584995,-7.477602567607733,-7.780500208631486,-9.272058210642875
1975.0,-5.925295065914009,-3.9699622913539105,-4.5893733971959065,-4.581930605664995,-6.588328302865247,-5.553910425894505,-5.797539513363014,-6.188731160309476,-7.471573842565403,-7.311714324762033,-7.613143342288786,-9.057291094304158
2000.0,-5.719698252087489,-3.8565597589204783,-4.468163944822514,-4.4815259601837,-6.403515514556179,-5.419346921362473,-5.6447358670615415,-6.042356540311851,-7.288825933642466,-7.150135374969526,-7.450115306582407,-8.84830247408305
2025.0,-5.5194498088783925,-3.746157472522734,-4.350150985853045,-4.383463008568031,-6.223428538227692,-5.288022282313838,-5.496076193520078,-5.899926850899896,-7.111111669435353,-6.992704178501489,-7.2912536511364845,-8.64487560906547
2050.0,-5.324353155463973,-3.638644081753296,-4.235216804113041,-4.287651870113429,-6.047892253822327,-5.159816171992729,-5.3514075798630145,-5.761294347822166,-6.938243375989265,-6.83926659301326,-7.136403352817209,-8.446804359922096
2075.0,-5.1342220955631115,-3.533913969799259,-4.1232497753805495,-4.194005287018781,-5.876740019709691,-5.0346131872784685,-5.210585396202074,-5.626318484348843,-6.770043337023295,-6.689675422829594,-6.985416363315106,-8.253892541727522
2100.0,-4.9488802037903445,-3.431866911481614,-4.014144004004674,-4.102438458322221,-5.709813166900113,-4.912302562182413,-5.073472804179197,-5.494865477672029,-6.606343200200799,-6.543789997674712,-6.8381511862891955,-8.065953323412742
2125.0,-4.768160261511252,-3.3324077585602017,-3.90779898830589,-4.01286887383717,-5.546960529285021,-4.792777886413504,-4.939940306377577,-5.366807906229076,-6.446983431548754,-6.401475778409345,-6.694472481625986,-7.882808669986929
2150.0,-4.591903738151251,-3.235446150073896,-3.8041193124044503,-3.9252161480880816,-5.388038006952642,-4.675936837785668,-4.8098653332565835,-5.2420243354140945,-6.291812814085255,-6.262603987565352,-6.55425069459498,-7.704288824025258
2175.0,-4.41996031428305,-3.140896245690747,-3.703014362338835,-3.8394018542464785,-5.232908159900523,-4.561680927353668,-4.683131864574043,-5.120398969376296,-6.14068798707757,-6.127051262671392,-6.417361707886855,-7.5302318232431205
2200.0,-4.25218744315387,-3.048676480228404,-3.6043980645330995,-3.755349358066802,-5.081439829711141,-4.449915256264736,-4.559630082537124,-5.0018213268145155,-5.9934730226806785,-5.994699330547373,-6.283686514704603,-7.360483051267916
2225.0,-4.0884499476140865,-2.9587093376706144,-3.5081886448453785,-3.6729836518222703,-4.9335077869762385,-4.340548283404509,-4.439256054172114,-4.886185938866433,-5.850039036998745,-5.865434700908679,-6.1531109112426865,-7.194894818979935
2250.0,-3.928619649680518,-2.8709211431551585,-3.4143084065889733,-3.592231188240815,-4.788992402454091,-4.233491602997839,-4.32191144062712,-4.773392067360631,-5.710263832876559,-5.739148377770559,-6.025525207037957,-7.033325974029156
2275.0,-3.7725750302112053,-2.7852418715435507,-3.322683526058556,-3.513019714441008,-4.647779340121083,-4.128659731398639,-4.207503231323765,-4.663343441852948,-5.574031571965667,-5.615735587275207,-5.900823951810447,-6.875641536345978
2300.0,-3.6202009163893862,-2.701604971303269,-3.2332438642225116,-3.43527810586795,-4.509759270440625,-4.025969902369574,-4.095943501055958,-4.555948014006623,-5.441232473824051,-5.495095520685059,-5.778905677531639,-6.721712357654493
2325.0,-3.471388194912635,-2.6199472025441666,-3.1459227933580842,-3.3589362002290746,-4.374827602316724,-3.9253418702125695,-3.987149188298119,-4.451117728000347,-5.311762540002572,-5.377131091394099,-5.659672654568269,-6.571414803169399
2350.0,-3.3260335489629,-2.5402084881482296,-3.0606570375099666,-3.2839246314301986,-4.242884232330933,-3.8266977201656696,-3.8810418931336295,-4.348768305760986,-5.185523301245296,-5.2617487049069185,-5.543030660846921,-6.424630453812865
2375.0,-3.1840392171963465,-2.4623317770231288,-2.9773865257487238,-3.2101746635113324,-4.113833309980088,-3.7299616855305735,-3.77754769334907,-4.248819045919727,-5.062421586090578,-5.14885804082466,-5.428888763074849,-6.281245827428831
2400.0,-3.045312773138625,-2.386262918589777,-2.8960542572901,-3.1376180245825855,-3.9875830177395613,-3.6350599710402483,-3.676596977361218,-4.151192635482595,-4.942369309302033,-5.038371845956986,-5.317159109132471,-6.141152117599514
2425.0,-2.909766923505247,-2.3119505476886903,-2.8166061776142968,-3.066186740760101,-3.8640453648742663,-3.5419205820162665,-3.5781242927544863,-4.05581497329032,-4.825283278689425,-4.93020573775201,-5.207756730826655,-6.004244948784714
2450.0,-2.7773193240879332,-2.2393459791565933,-2.738991064795222,-2.995812970101923,-3.743135994008119,-3.4504731589022706,-3.482068209306518,-3.9626150044180384,-4.711085018997315,-4.824278017302987,-5.100599356260409,-5.870424146609463
2475.0,-2.6478924119580833,-2.168403111385016,-2.6631604253134014,-2.926428836543899,-3.624773999543044,-3.3606488167934865,-3.388371195470983,-3.871524564734917,-4.599700611646758,-4.72050949125023,-4.9956072311346515,-5.739593522221028
2500.0,-2.5214132528388484,-2.099078338228716,-2.5890683986848875,-2.857966263835614,-3.5088817570917596,-3.2723799896125563,-3.296979507369315,-3.7824782349061516,-4.491060549212892,-4.618823301951772,-4.892702948353182,-5.611660669722998
2525.0,-2.397813402588684,-2.0313304686814098,-2.516671670291425,-2.7903568094761995,-3.395384763155057,-3.1856002786095967,-3.207843089418796,-3.695413203177307,-4.385099603610473,-4.51914476534587,-4.7918112853517165,-5.486536775773329
2550.0,-2.2770287818222648,-1.9651206537824522,-2.445929391845484,-2.723531498650425,-3.2842114843350796,-3.1002443048899067,-3.1209154857929047,-3.6102691363328794,-4.2817567070398015,-4.421401215974151,-4.692859048617669,-5.364136440505097
2575.0,-2.158999562771258,-1.90041232026011,-2.3768031089686885,-2.6574206581642947,-3.1752932154314735,-3.0162475656952608,-3.036153761973056,-3.526988058268555,-4.1809748448205175,-4.325521858675781,-4.595774924908667,-5.244377508994561
2600.0,-2.043670067555701,-1.8371711104547315,-2.309256695401084,-2.5919537503813066,-3.068563945817597,-2.9335462941866393,-2.9535184357073176,-3.4455142356599913,-4.0827009593067904,-4.231437626500405,-4.500489338716296,-5.12718091256106
2625.0,-1.9309886771015765,-1.7753648281010304,-2.2432562933970788,-2.527059207158008,-2.963960233540556,-2.8520773224943903,-2.872973416745414,-3.365794070250904,-3.9868858641407297,-4.139081044422521,-4.406934315555878,-5.012470519238039
2650.0,-1.8209077499966522,-1.7149633895794039,-2.1787702598967473,-2.4626642637801726,-2.8614210866306244,-2.7717779478206004,-2.7944859547655723,-3.287775997319023,-3.89348416815583,-4.0483860984720685,-4.315043350695031,-4.900172992804877
2675.0,-1.71338355063112,-1.6559387802766241,-2.11576911809189,-2.398694792898557,-2.760887851144668,-2.692585801393563,-2.718026594954097,-3.2114103899120736,-3.8024542082950417,-3.959288109923587,-4.224751282962873,-4.790217659814746
2700.0,-1.6083761860173222,-1.5982650157223022,-2.054225514035702,-2.335075138464786,-2.6623041055034915,-2.614438720089715,-2.6435691407379243,-3.1366494684763397,-3.7137579909547953,-3.871723614214898,-4.135994173308322,-4.68253638409617
2725.0,-1.505849550727743,-1.5419181071923862,-1.994114177969277,-2.2717279496673553,-2.5656155607153583,-2.537274620551745,-2.5710906232073225,-3.063447215528001,-3.6273611412097764,-3.78563024428866,-4.048709187800537,-4.577063448244247
2750.0,-1.4057712794317454,-1.4868760314936038,-1.935411890063206,-2.208574014867387,-2.4707699661081284,-2.461031375643845,-2.5005712768002164,-2.9917592950434124,-3.543232859413594,-3.7009466180735764,-3.962834484786764,-4.473735441653143
2775.0,-1.3081127065484832,-1.4331187046631546,-1.8780974502939662,-2.145532095534707,-2.377717020219478,-2.385646693096981,-2.431994520849994,-2.9215429762676877,-3.4613458847062497,-3.617612229842694,-3.8783091059436843,-4.372491154673741
2800.0,-1.2128488325688669,-1.380627959337539,-1.8221516521948595,-2.082518760183608,-2.2864082865201443,-2.3110579962070465,-2.365346946627938,-2.8527570616628535,-3.381676464993939,-3.535567345204185,-3.795072870977178,-4.2732714785104955
2825.0,-1.1199582966304709,-1.3293875255614438,-1.7675572602398577,-2.019448218308771,-2.196797113668077,-2.2372023064588777,-2.3006183095371298,-2.7853618187364084,-3.3042043329969264,-3.454752899498381,-3.7130662757429587,-4.176019310498841
2850.0,-1.0294233549591443,-1.2793830148239158,-1.7142989906358899,-1.956232154321225,-2.108838560012956,-2.164016127957897,-2.2378015261391,-2.7193189155097945,-3.228912687989977,-3.375110399390277,-3.6322303935764113,-4.080679464429861
2875.0,-0.9412298648179055,-1.2306019071242549,-1.6623634953144841,-1.8927795614842096,-2.022489322089872,-2.0914353335592386,-2.176892675716996,-2.654591359402839,-3.155788182886419,-3.296581827461452,-3.552506779635115,-3.987198585612466
2900.0,-0.8553672736285993,-1.1830335408830916,-1.6117393489283465,-1.828996575849051,-1.9377076668594884,-2.019395052592004,-2.1178910060991356,-2.591143439325932,-3.0848209163405564,-3.2191095496190454,-3.473837378070606,-3.8955250703844433
2925.0,-0.7718286129546975,-1.1366691055275406,-1.5624170386722138,-1.7647863101911068,-1.854453367468235,-1.9478295600832125,-2.060798943486354,-2.5289406707861812,-3.016004429565982,-3.142636225152394,-3.396164431859177,-3.805608989803978
2950.0,-0.6906104970552028,-1.0915016365904697,-1.5143889567586217,-1.7000486879455452,-1.77268764231809,-1.8766721673923943,-2.0056221060434742,-2.4679497438265856,-2.9493357075878026,-3.0671047192783183,-3.319430395132676,-3.7174020172714246
2975.0,-0.6117131257384976,-1.0475260131747293,-1.4676493953918048,-1.6346802771435387,-1.6923730972491895,-1.8058551141741166,-1.952369321031742,-2.4081384736300726,-2.884815184665621,-2.992458018028417,-3.2435778478611272,-3.630857359847933
3000.0,-0.535140291264329,-1.004738957643807,-1.4221945440926924,-1.5685741243477804,-1.6134736706521817,-1.7353094615904503,-1.9010526452744343,-2.34947575363121,-2.822446753642476,-2.918639145339813,-3.16854941274892,-3.545929693053367
