,SiO(g),Na(g),O2(g),O(g),Fe(g),SiO2(g),FeO(g),K(g),Mg(g),NaO(g),MgO(g),KO(g)
500.0,-60.12962300242657,-34.041743598232024,-20.5158220949669,-33.194604369130246,-49.53063799249311,-51.57705658621699,-44.823071659858265,-37.462350429500844,-59.60530350597693,-45.46161957510751,-62.67041061522918,-45.87935149806656
525.0,-56.42875292755322,-31.94533120331435,-19.931132342559536,-31.65564513847098,-46.423710474283766,-48.68827068250848,-42.248648036544985,-35.238398931727765,-55.921966507778464,-43.08626018871465,-59.12799184471138,-43.50880248818012
550.0,-53.08391348921789,-30.052400686959057,-19.364706431592047,-30.238664100891288,-43.623383060190285,-46.063891205172965,-39.915441965491276,-33.23100458250202,-52.59955153335697,-40.92231062006292,-55.9154218933896,-41.35064334560851
575.0,-50.047650566120886,-28.33564964309726,-18.816005796601278,-28.928690056350614,-41.088307016131964,-43.66933932149897,-37.79153931678029,-31.411037713993515,-49.58954568002953,-38.9423488634612,-52.989168334764976,-39.37720818648525
600.0,-47.2804635800423,-26.772377743093138,-18.284504292809366,-27.71320785445094,-38.78410808057246,-41.475805259865744,-35.85038975949242,-29.754288765105468,-46.85161100499224,-37.12353664411443,-50.31300524037632,-37.565468860944584
625.0,-44.74921336960689,-25.343561440268537,-17.769688030059683,-26.581668350718697,-36.681984638584844,-39.459094236825266,-34.06972822352137,-28.24047746097094,-44.35194183803527,-35.446698944127455,-47.85654533705535,-35.89610175933655
650.0,-42.425897469380054,-24.033142912201537,-17.27105520675273,-25.525111430737383,-34.757630339812366,-37.598738681127195,-32.43074618125912,-26.852491682435243,-42.06200223856852,-33.895616634472695,-45.59411194059121,-34.35277099079303
675.0,-40.28669755545116,-22.827477563476243,-16.788115943782014,-24.5358727882436,-32.99039686875781,-35.87730772912845,-30.917447804552367,-25.575796276028438,-39.957544842834736,-32.45647682903085,-43.5038623774335,-32.92157163736934
700.0,-38.31123102533149,-21.71490034884394,-16.320392118469965,-23.60735351869556,-31.362636697693187,-34.27986468319081,-29.51614464648688,-24.397969170538467,-38.017840605865786,-31.117441430259596,-41.56709987452643,-31.5905929161005
725.0,-36.48195744448128,-20.68538216076101,-15.867417198503833,-22.733837365958824,-29.85918227882728,-32.793536723976864,-28.21505531169022,-23.30833395925289,-36.225068420933766,-29.86830526223076,-39.7677283133462,-30.349572193929834
750.0,-34.783703727781045,-19.730255209028535,-15.428736075871592,-21.91034450304836,-28.466929764230255,-31.407170687930105,-27.00398554215809,-22.297666354393662,-34.56382722661825,-28.700222830062994,-38.09181642803082,-29.18961857168686
775.0,-33.20328124717724,-18.841991769684363,-15.003904900797837,-21.132513597301575,-27.174503592229648,-30.111055478211632,-25.874070502016554,-21.357957767926212,-33.02074287743445,-27.6054881654794,-36.527246668858986,-28.102990262973304
800.0,-31.729174757979028,-18.014024594521498,-14.592490915679674,-20.39650597276275,-25.971984205501876,-28.896696534352596,-24.817565609967538,-20.482223472089398,-31.584148997542226,-26.57735611179825,-35.0634301595819,-27.082913950062043
825.0,-30.351287910197886,-17.24060011746758,-14.194072289022634,-19.698927182491804,-24.850685473854714,-27.756631318515147,-23.82767558599159,-19.66434584414867,-30.243826084221595,-25.60989623151121,-33.69107368876585,-26.123437173400948
850.0,-29.06073369527247,-16.516657684518616,-13.808237949376572,-19.036762406401195,-23.802971560408874,-26.684277373970534,-22.898413816693207,-18.898945441347305,-28.990786836967516,-24.697872599022194,-32.40198799071343,-25.219306922882424
875.0,-27.849660841018782,-15.837729585834124,-13.434587419271551,-18.4073229095152,-22.822105320247452,-25.67380644126783,-22.024485953309338,-18.18127431562673,-27.817098441971638,-23.83664428483263,-31.18892903293862,-24.36586916613643
900.0,-26.71110916461024,-15.199857831791205,-13.07273064915376,-17.808201410014053,-21.902122082398577,-24.720039565057448,-21.201193012652347,-17.507127224267894,-26.71573460609677,-23.022082494498672,-30.04546587213031,-23.558985223310263
925.0,-25.6388884046722,-14.599524494487785,-12.722287851321413,-17.237234671427846,-21.037723998529188,-23.818359219995294,-20.424350276873536,-16.872767335131684,-25.68045169582568,-22.250501200723775,-28.965870035897744,-22.794961785555014
950.0,-24.627476206964435,-14.033593107103764,-12.382889333860627,-16.692471988215786,-20.224191158087713,-22.964635320207183,-19.690219070080545,-16.27486374383314,-24.70568452761502,-21.5185987743163,-27.945022451842686,-22.070492051296544
975.0,-23.671931825377296,-13.49925912929621,-12.054175334581359,-16.172148506943806,-19.45730645101967,-22.15516261994175,-18.995449091065097,-15.710438672519482,-23.78645827171664,-20.823408632776736,-26.978334763675935,-21.38260597455208
1000.0,-22.767822787608633,-12.99400788627207,-11.735795854953265,-15.674662536830589,-18.733291764424497,-21.38660751150075,-18.337029447015322,-15.176822647604773,-22.918313640772837,-20.162257322628967,-26.061682507808698,-20.728628022317775
1025.0,-21.91116231159711,-12.515578700769305,-11.427410494041633,-15.198556168550596,-18.04875357165059,-20.655962615591452,-17.71224689623886,-14.671616287329762,-22.09724308775986,-19.53272876154408,-25.191348118166136,-20.106141152120298
1050.0,-21.09835568049695,-12.06193418184247,-11.128688282443262,-14.74249864991769,-17.400636343083864,-19.960507864941487,-17.118650093056605,-14.19265759183991,-21.319636172338058,-18.932633609672397,-24.36397211513578,-19.512955967368885
1075.0,-20.32615411742916,-11.631233827686405,-10.839307516222373,-14.305272069655024,-16.786182500883427,-19.297777023736092,-16.554018853322116,-13.7379938353189,-20.58223259803414,-18.359982931909506,-23.576511141306668,-18.947084202906236
1100.0,-19.591614966492127,-11.221811253428697,-10.558955590846498,-13.885758982055506,-16.202897872861307,-18.6655287777168,-16.016337638110127,-13.305857324115838,-19.88208169567468,-17.81296546570285,-22.82620175051578,-18.40671584794635
1125.0,-18.89206719871474,-10.832154477704115,-10.287328835122397,-13.482931670616658,-15.648521786957039,-18.061721683606574,-15.503772596287915,-12.894644416210689,-19.216507346770733,-17.289927931234043,-22.1105290516929,-17.89019933730491
1150.0,-18.22508143231902,-10.460888800604266,-10.024132345131948,-13.095842801240613,-15.121001097491218,-17.484492390256964,-15.014651621761772,-12.502897302974029,-18.583077516037953,-16.78935791906691,-21.42719946573331,-17.396024341254776
1175.0,-17.588443794658794,-10.106761885412586,-9.769079818168038,-12.723617258042816,-14.61846755537919,-16.93213664395014,-14.54744697416985,-12.129288139492248,-17.979577704045788,-16.30986896974289,-20.774116980280212,-16.922806764654098
1200.0,-16.98013306532555,-9.768630721347009,-9.521893386670481,-12.365444989305612,-14.13921803274424,-16.403092671568533,-14.100760087285574,-11.772605178992912,-17.403987746149003,-15.850187524272618,-20.149362390143846,-16.469275631195103
1225.0,-16.398300631442055,-9.445450197408649,-9.282303452161901,-12.02057471927034,-13.681697192537095,-15.895926601695745,-13.673308250979773,-11.431740623398385,-16.854461477817154,-15.409141477066367,-19.55117509499374,-16.034261581798994
1250.0,-15.841252861218125,-9.136263060767702,-9.05004851918364,-11.688308404550519,-13.244482259473426,-15.409319638118768,-13.2639129030558,-11.105679948325792,-16.329308863485867,-14.98565010594818,-18.97793709472528,-15.616686759752204
1275.0,-15.307435563650289,-8.84019106878257,-8.824875029231674,-11.367996332963273,-12.826269602680133,-14.94205674500615,-12.87148930880178,-10.793492498938754,-15.826980249441227,-14.578715189372483,-18.428158879501005,-15.215555891027748
1300.0,-14.795420253356987,-8.556427173222573,-8.606537194692455,-11.059032778299507,-12.42586288513968,-14.493016640085788,-12.495037440424888,-10.49432318452875,-15.346052453639395,-14.187413150279413,-17.900466958243683,-14.829948397855036
1325.0,-14.303891981970276,-8.284228599719919,-8.394796832778916,-10.760852137607174,-12.04216257210839,-14.061162922902875,-12.133633897004396,-10.207385125810596,-14.885216448834512,-13.810888090349435,-17.393592808169213,-14.459011408171545
1350.0,-13.83163853286212,-8.022910705843952,-8.189423199466242,-10.472925488439328,-11.674156621576111,-13.645536190868167,-11.786424729311843,-9.93195313065398,-14.443266431596967,-13.44834559867632,-16.906363060272373,-14.101953544044925
1375.0,-13.377540805554068,-7.771841518215336,-7.990192823427872,-10.194757512617256,-11.320912205656185,-13.245247017241947,-11.45261905366429,-9.667357892141355,-14.019090100072836,-13.09904723581135,-16.43769076269926,-13.758039389251916
1400.0,-12.940564240976055,-7.530436863358216,-7.796889339971358,-9.925883740693994,-10.98156833345668,-12.85946968318787,-11.13148335559853,-9.412980818076548,-13.611659988725336,-12.762305608335174,-15.986567586604119,-13.426584550534333
1425.0,-12.519751159638625,-7.298156019006946,-7.609303324974256,-9.665868077734164,-10.655329264214934,-12.487436571179424,-10.822336398141791,-9.168249413888608,-13.220025729672155,-12.43747996106833,-15.552056858165388,-13.106951239115679
1450.0,-12.114213902437028,-7.0744978227318756,-7.427232128820062,-9.41430057645808,-10.34145861487273,-12.128433139838378,-10.524544661264295,-8.932633151698974,-12.843307128277672,-12.123972224124685,-15.133287316541798,-12.79854430924533
1475.0,-11.72312867876688,-6.858997183343592,-7.250479710334048,-9.17079542840183,-10.039274079308687,-11.781793411128834,-10.23751824909993,-8.705639767481793,-12.480687955945543,-11.821223460560958,-14.729447511191896,-12.500807699157049
1500.0,-11.345767350657631,-6.651203292181341,-7.078856470719244,-8.934989147658174,-9.748124031867883,-11.44693322135808,-9.960688554362122,-8.48677462472365,-12.131391720388546,-11.52869201198273,-14.33976210791503,-12.213183915843892
1525.0,-10.981490356275689,-6.450677855709109,-6.912179087492284,-8.70653892509876,-9.467384315364384,-11.123344459097938,-9.693505994716082,-8.275539825810108,-11.794677702814374,-11.245851663751578,-13.96348840094227,-11.935113247479807
1550.0,-10.629629137392033,-6.2570491001688815,-6.750270348419301,-8.485121133829804,-9.196510945808305,-10.810478671833504,-9.435493566062455,-8.07154460605587,-11.46989298493247,-10.972245580735521,-13.599968760854548,-11.666144240671946
1575.0,-10.28955824462818,-6.069971402954828,-6.592958985451875,-8.27042996907754,-8.934998572379563,-10.507820230179467,-9.186206062345008,-7.874426748866021,-11.156430296146961,-10.70744586843478,-13.248588854692262,-11.405855183010347
1600.0,-9.960694003491245,-5.889122058096359,-6.44007950866286,-8.062176207800093,-8.682376185918582,-10.214885945822767,-8.945226464856496,-7.683848062310625,-10.853723167072896,-10.451050267017898,-12.90877312964295,-11.15384963292899
1625.0,-9.642491144244497,-5.714199429526931,-6.2914720401823505,-7.860086075132289,-8.43820431723638,-9.931222557767878,-8.712163750855028,-7.49949244682406,-10.561242624424937,-10.202680232074298,-12.579981799959624,-10.909754528108419
1650.0,-9.334439747262069,-5.544921276959254,-6.146982148133583,-7.663900206332545,-8.202072499194914,-9.656404448665663,-8.486650902919889,-7.32106414331014,-10.278494195737283,-9.961979187017162,-12.261708109613808,-10.673218463035427
1675.0,-9.036062470790434,-5.38102323626263,-6.006460680568752,-7.473372694253987,-7.973596964885979,-9.390031567070743,-8.268343097960427,-7.148286142732512,-10.005015191408658,-9.728610929132413,-11.953475841739372,-10.443910117974568
1700.0,-8.746912031940731,-5.222257438374405,-5.869763599405001,-7.288270213535944,-7.752418557502357,-9.131727534324366,-8.05691605728239,-6.980898740501943,-9.740372235402392,-9.502258173393807,-11.654837049340586,-10.2215168237002
1725.0,-8.466568915127983,-5.068391252634293,-5.736751814360302,-7.108371213732501,-7.538200830333732,-8.881137917238759,-7.852064541280945,-6.818658220912644,-9.484159019266436,-9.282621220010855,-11.365369984707897,-10.005743248157762
1750.0,-8.194639285128186,-4.919206142047986,-5.607291016889313,-6.933465174484408,-7.330628317792207,-8.637928649918361,-7.653500974215101,-6.661335658570683,-9.23599425704267,-9.069416733284982,-11.08467720757204,-9.79631019280941
1775.0,-7.930753084503377,-4.774496619398594,-5.481251514119314,-6.763351916617432,-7.1294049605312235,-8.401784589938162,-7.460954186164467,-6.508715825232202,-8.995519821171133,-8.86237662075363,-10.812383854286013,-9.592953487802186
1800.0,-7.674562297401248,-4.634069294359299,-5.358508062786121,-6.597840963729867,-6.93425266960933,-8.172408195747783,-7.274168260708404,-6.360596191761279,-8.76239904171178,-8.661247002830278,-10.548136052298805,-9.39542297630906
1825.0,-7.425739363713496,-4.497742002843702,-5.238939703169925,-6.436750949427679,-6.744910016305301,-7.949518313614844,-7.092901478129246,-6.216786016047301,-8.536315153151522,-8.465787264225138,-10.29159946591697,-9.203481579452795
1850.0,-7.183975729313536,-4.36534301077996,-5.122429593031262,-6.279909065889431,-6.561131035643329,-7.732849063689565,-6.9169253450484245,-6.077105508715861,-8.316969874769367,-8.275769179375974,-10.04245796086881,-9.016904434155437
1875.0,-6.948980519621621,-4.236710285332042,-5.008864841546904,-6.127150549903402,-6.382684132966071,-7.522148815888095,-6.746023702378889,-5.941385069340871,-8.104082112035421,-8.09097610495095,-9.800412376523786,-8.835478097075312
1900.0,-6.720479325092274,-4.111690827327322,-4.898136343245664,-5.978318202925511,-6.209351084018692,-7.317179247275666,-6.579991904335016,-5.8094645866354115,-7.897386767841693,-7.911202233217173,-9.565179395797545,-8.658999808515615
1925.0,-6.4982130884067875,-3.990140059300835,-4.79013861194445,-5.833261942065412,-6.040926120001942,-7.117714473498215,-6.4186360619993135,-5.681192796778962,-7.696633653530754,-7.736251900716475,-9.336490503812744,-8.487276810826629
1950.0,-6.2819370842053415,-3.8719212641419096,-4.684769614684019,-5.691838379224927,-5.877215089931521,-6.923540247578866,-6.261772345614883,-5.55642669464031,-7.501586490721803,-7.565938947261595,-9.114091027306179,-8.320125716387606
1975.0,-6.071419983124035,-3.756905069837779,-4.581930605664995,-5.553910425894505,-5.7180346934195185,-6.734453220075275,-6.10922634036598,-5.435030993186679,-7.3120219958474895,-7.400086120772655,-8.897739247586244,-8.157371920752805
2000.0,-5.866442992728183,-3.644968976261759,-4.4815259601837,-5.419346921362473,-5.56321177768513,-6.550260255196872,-5.960832450935438,-5.316877626843901,-7.127729040127875,-7.238524523923688,-8.68720558056846,-7.998849056990913
2025.0,-5.666799068667522,-3.5359969203545814,-4.383463008568031,-5.288022282313838,-5.412582693215262,-6.370777798016819,-5.816433350595081,-5.201845294990697,-6.948507878427692,-7.081093098968331,-8.482271818057807,-7.844398487639142
2050.0,-5.472292190032067,-3.4298788764051986,-4.287651870113429,-5.159816171992729,-5.26599270304268,-6.195831288390422,-5.675879471001831,-5.089819042144624,-6.774169441085934,-6.9276381474691116,-8.282730425018764,-7.693868831044844
2075.0,-5.282736693469704,-3.3265104884562886,-4.194005287018781,-5.0346131872784685,-5.123295441095516,-6.025254617616283,-5.539028529242286,-4.980689871730317,-6.604534683378406,-6.778012881972135,-8.088383888082634,-7.5471155191793615
2100.0,-5.097956661146428,-3.225792732143644,-4.102438458322221,-4.912302562182413,-4.984352415507508,-5.858889624256196,-5.405745089000341,-4.874354390617432,-6.439433987784387,-6.632077006951226,-7.899044110996329,-7.404000384287471
2125.0,-4.917785358094492,-3.1276316035329836,-4.01286887383717,-4.792777886413504,-4.849032553165827,-5.69658562586826,-5.275900153017327,-4.770714481881309,-6.278706614684859,-6.489696326598769,-7.714531853123034,-7.264391271984765
2150.0,-4.742064714909841,-3.0319378327455686,-3.9252161480880816,-4.675936837785668,-4.717211782121978,-5.538198983711233,-5.149370784279489,-4.669677003478306,-6.122200197528469,-6.350742377266653,-7.534676207468469,-7.1281616786392075
2175.0,-4.570644852132506,-2.9386266203670743,-3.8394018542464785,-4.561680927353668,-4.588772648802167,-5.383592697749978,-5.02603975360442,-4.571153510738726,-5.969770278866805,-6.2150920825631815,-7.359314115032355,-6.995190411071284
2200.0,-4.40338364297849,-2.8476173948183767,-3.755349358066802,-4.449915256264736,-4.463603967233376,-5.232636029535761,-4.905795211510768,-4.475060000774344,-5.821279883989891,-6.0826274292945754,-7.188289912577127,-6.865361266788618
2225.0,-4.240146311391956,-2.7588335890301,-3.6729836518222703,-4.340548283404509,-4.34160049775293,-5.085204150754108,-4.788530382447249,-4.381316677066405,-5.676599129187041,-5.953235162602172,-7.02145491116823,-6.738562733129706
2250.0,-4.080805062657121,-2.672202434911507,-3.592231188240815,-4.233491602997839,-4.222662652895075,-4.941177815430693,-4.674143279628587,-4.289847732656856,-5.535604861924398,-5.826806498794305,-6.858667003076994,-6.614687703838441
2275.0,-3.925238744052504,-2.5876547742374854,-3.513019714441008,-4.128659731398639,-4.106696228351659,-4.800443053962381,-4.562536438880842,-4.200581150504174,-5.398180330469546,-5.7032368545043814,-6.6997902948498576,-6.493633211720825
2300.0,-3.773332533250489,-2.5051248846970235,-3.43527810586795,-4.025969902369574,-3.993612157088148,-4.662890887301729,-4.453616670038813,-4.113448519689807,-5.26421488070884,-5.582425590925392,-6.5446947645392815,-6.375300176152355
2325.0,-3.6249776523630204,-2.424550319956009,-3.3589362002290746,-3.9253418702125695,-3.8833262848613943,-4.52841705976711,-4.3472948245636225,-4.028384866276699,-5.133603678098781,-5.464275771980112,-6.393255941265608,-6.259593164312713
2350.0,-3.480071105713429,-2.3458717626841703,-3.2839246314301986,-3.8266977201656696,-3.7757591655358316,-4.396921789081462,-4.243485578163188,-3.945328497721361,-5.006247452867578,-5.348693935382862,-6.245354605435148,-6.146420165118313
2375.0,-3.338515439577537,-2.2690328895858163,-3.2101746635113324,-3.7299616855305735,-3.67083587473044,-4.268309532361279,-4.142107227301096,-3.864220859836198,-4.882052266743653,-5.235589875637538,-6.100876508081905,-6.035692374912134
2400.0,-3.2002185222831767,-2.193980247553657,-3.1376180245825855,-3.6350599710402483,-3.5684858404513533,-4.142488766884113,-4.043081498572731,-3.7850064053812558,-4.760929299631093,-5.124876438096351,-5.959712107928572,-5.927323994048143
2425.0,-3.06509334319124,-2.1206631401382667,-3.066186740760101,-3.5419205820162665,-3.468642689476916,-4.019371784560259,-3.94633337001275,-3.707632473440997,-4.642794654783617,-5.0164693232762305,-5.821756324878905,-5.821232033578711
2450.0,-2.9330578292022667,-2.0490335235921675,-2.995812970101923,-3.4504731589022706,-3.371244108362623,-3.898874499122453,-3.8517909034741438,-3.6320491788118536,-4.5275691811471575,-4.910286900695984,-5.686908308759306,-5.71733613131962
2475.0,-2.8040346775426137,-1.9790459118068633,-2.926428836543899,-3.3606488167934865,-3.2762317180257474,-3.780916265127575,-3.7593850872896812,-3.5582093106878534,-4.415178311649092,-4.806250031556498,-5.555071222223363,-5.6155583766246835
2500.0,-2.6779512036841773,-1.910657289517114,-2.857966263835614,-3.2723799896125563,-3.183550960952758,-3.665419707937088,-3.669049688489595,-3.486068239989995,-4.305551916310678,-4.704281899641578,-5.426152036820784,-5.51582314325688
2525.0,-2.554739203343103,-1.843827033195431,-2.7903568094761995,-3.1856002786095967,-3.0931510001491618,-3.552310563909476,-3.5807211139076727,-3.4155838347364913,-4.198624169148354,-4.604307849865737,-5.300061341311211,-5.418056929790937
2550.0,-2.4343348275856003,-1.7785168391059158,-2.723531498650425,-3.1002443048899067,-3.004984629020261,-3.441517530098415,-3.4943382795602362,-3.346716382898343,-4.094333427911112,-4.506255233941133,-5.176713161376407,-5.322188207027011
2575.0,-2.316678470145278,-1.7146906580277796,-2.6574206581642947,-3.0162475656952608,-2.9190081914353154,-3.332972122805493,-3.4098424877308147,-3.279428522229189,-3.9926221257760592,-4.410053262676336,-5.056024789950104,-5.228147271936283
2600.0,-2.2017146661248157,-1.6523146361965302,-2.5919537503813066,-2.9335462941866393,-2.835181511284588,-3.2266085443867114,-3.3271773112372616,-3.213685176595993,-3.8934366741910984,-4.315632864458094,-4.937916627445367,-5.135866107695314
2625.0,-2.0893920013192124,-1.5913570620460185,-2.527059207158008,-2.8520773224943903,-2.753467830892643,-3.122363557758192,-3.2462884843981326,-3.1494534983752827,-3.796727376117065,-4.222926549500865,-4.822312031214374,-5.045278249400725
2650.0,-1.9796630314543473,-1.531788318365261,-2.4626642637801726,-2.7717779478206004,-2.6738337576984157,-3.020176368088319,-3.1671238002518662,-3.086702816511374,-3.702448348977173,-4.131868279480888,-4.70913717362622,-4.956318655086696
2675.0,-1.8724842106888677,-1.4735808395137993,-2.398694792898557,-2.692585801393563,-2.5962492186578823,-2.919988511202416,-3.089633013615859,-3.0254045898637716,-3.6105574566745773,-4.042393342200048,-4.598320908194281,-4.868923581695469
2700.0,-1.7678158287751313,-1.4167090733654004,-2.335075138464786,-2.614438720089715,-2.520687421865028,-2.8217437482613006,-3.013767749603443,-2.9655323654989454,-3.52101625008588,-3.95443823095142,-4.489794643227255,-4.7830304656781415
2725.0,-1.6656219563195527,-1.36114944767432,-2.2717279496673553,-2.537274620551745,-2.447124824924296,-2.7253879663071676,-2.939481417244974,-2.907061741606619,-3.433789915482298,-3.86794052828247,-4.383492222516768,-4.698577807926002
2750.0,-1.5658703976242057,-1.3068803405809506,-2.208574014867387,-2.461031375643845,-2.375541109641791,-2.630869084300589,-2.866729127884987,-2.8499703347442256,-3.348847230370428,-3.7828387938741113,-4.279349812609977,-4.615505062754596
2775.0,-1.4685326506280776,-1.253882054993646,-2.145532095534707,-2.385646693096981,-2.30591916263374,-2.5381369642990728,-2.795467618051434,-2.7942377511349585,-3.2661605262810167,-3.6990724562741755,-4.177305796248508,-4.533752530683688
2800.0,-1.3735838735018924,-1.202136796603268,-2.082518760183608,-2.3110579962070465,-2.2382450614798914,-2.44714332745317,-2.7256551765148065,-2.7398455617644224,-3.1857056580684597,-3.6165817082429075,-4.077300671585018,-4.453261254773748
2825.0,-1.281002857481464,-1.1516286553033777,-2.019448218308771,-2.2372023064588777,-2.172508066075553,-2.3578416745190705,-2.657251575274832,-2.6867772810383617,-3.107461979314575,-3.535307405484893,-3.979276956816489,-4.373972920296886
2850.0,-1.1907720055541102,-1.1023435898056324,-1.956232154321225,-2.164016127957897,-2.108700614860721,-2.270187210607922,-2.5902180042314153,-2.6350183487821344,-3.031412323458762,-3.455190968558128,-3.8831790998986446,-4.295829757536523
2875.0,-1.1028773166395618,-1.054269415254621,-1.8927795614842096,-2.0914353335592386,-2.046818325627317,-2.184136773911528,-2.5245170093131595,-2.5845561153763175,-2.9575429903037094,-3.376174287765481,-3.788953393029756,-4.218774447523286
2900.0,-1.0173083749316496,-1.0073957936595528,-1.828996575849051,-2.019395052592004,-1.9868600006259507,-2.099648768162539,-2.4601124338527467,-2.535379829838259,-2.885843737569313,-3.298199630847067,-3.6965478916132,-4.142750030528958
2925.0,-0.9340583440898917,-0.96171422697323,-1.7647863101911068,-1.9478295600832125,-1.9288276357131315,-2.0166830986034294,-2.3969693630129587,-2.4874806306721347,-2.8163077771906226,-3.2212095533048664,-3.605912337428619,-4.067699817152316
2950.0,-0.8531239659914875,-0.9172180526601541,-1.7000486879455452,-1.8766721673923943,-1.8727264332973415,-1.9352011112543743,-2.335054071080453,-2.440851539321594,-2.7489317760761978,-3.1451468112023604,-3.516998085759819,-3.993567301841291
2975.0,-0.7745055637733376,-0.8739024416058147,-1.6346802771435387,-1.8058551141741166,-1.8185648188584558,-1.8551655352840295,-2.2743339714567865,-2.395487456071398,-2.6837158610620713,-3.069954276292213,-3.429758036244383,-3.920296078708011
3000.0,-0.6982070489127402,-0.8317643982302784,-1.5685741243477804,-1.7353094615904503,-1.7663544608311141,-1.7765404283005928,-2.21477756918789,-2.3513851582536223,-2.620663627815188,-2.995574853335391,-3.3441465672260784,-3.8478297595007436
