,O(g),O2(g),Mg(g),MgO(g),Mg2(g),Ca(g),CaO(g),Ca2(g),Al(g),AlO(g),AlO2(g),Al2(g),Al2O(g),Al2O2(g),Si(g),SiO(g),SiO2(g),Si2(g),Si2O2(g),Si3(g),Na(g),NaO(g),Na2(g),Na2O(g),K(g),KO(g),KO2(g),K2(g),K2O(g),Fe(g),FeO(g)
500.0,-33.194604369130246,-20.5158220949669,-59.60530350597693,-62.67041061522918,-121.40758825073281,-72.53731304985506,-70.80816357176626,-146.8463955828067,-90.85044228389627,-76.28407993148775,-73.94409960754686,-169.16626365939834,-117.21093699164466,-105.20929663060504,-104.16702242159667,-60.12962300242657,-51.57705658621699,-178.77023134630124,-109.28180316162987,-247.87910315030908,-34.041743598232024,-45.46161957510751,-64.64284345039576,-60.39066017968994,-37.462350429500844,-45.87935149806656,-54.428269515510365,-73.310591130198,-67.6644854330137,-49.53063799249311,-44.823071659858265
525.0,-31.65564513847098,-19.931132342559536,-55.921966507778464,-59.12799184471138,-114.08726200790905,-68.27798392665956,-66.92394121632218,-138.3871084420897,-85.4958561548791,-71.94677316333268,-70.08435942484381,-159.2922476149971,-110.22588566752498,-99.17431131626203,-98.01893511497003,-56.42875292755322,-48.68827068250848,-168.154202533848,-102.67464171433879,-233.1048435772965,-31.94533120331435,-43.08626018871465,-60.81051870787503,-57.129754400760675,-35.238398931727765,-43.50880248818012,-52.03900767387561,-69.11889166610293,-64.10591054301332,-46.423710474283766,-42.248648036544985
550.0,-30.238664100891288,-19.364706431592047,-52.59955153335697,-55.9154218933896,-107.48559212098027,-64.43284937973739,-63.40246513450853,-130.7513245041617,-80.65968416881903,-68.01830853391428,-66.57210714068965,-150.3790657861515,-103.92189641748578,-93.71634093572136,-92.46641910168601,-53.08391348921789,-46.063891205172965,-158.57679914725293,-96.7066342911381,-219.78400159890228,-30.052400686959057,-40.92231062006292,-57.352734267923786,-54.17360680970215,-33.23100458250202,-41.35064334560851,-49.84640048575863,-65.3372044258088,-60.88230342216434,-43.623383060190285,-39.915441965491276
575.0,-28.928690056350614,-18.816005796601278,-49.58954568002953,-52.989168334764976,-101.50591695241545,-60.94635260212922,-60.19580650053585,-123.82853740506046,-76.2725916176075,-64.4445381214878,-63.36204525769573,-142.29795684779427,-98.20751253145096,-88.75839131393663,-87.429867785989,-50.047650566120886,-43.66933932149897,-149.89867801861737,-91.29239549758569,-207.72121340622834,-28.33564964309726,-38.9423488634612,-54.219100533002894,-51.48185409620548,-31.411037713993515,-39.37720818648525,-47.82575161767753,-61.910290479072955,-57.949120517471364,-41.088307016131964,-37.79153931678029
600.0,-27.71320785445094,-18.284504292809366,-46.85161100499224,-50.31300524037632,-96.06786716898421,-57.772297142507156,-57.26408697638143,-117.52686300285136,-72.27689067031375,-61.18039212307774,-60.41644744977067,-134.9418020335401,-93.0066717692596,-84.23641633733675,-82.84302507803523,-47.2804635800423,-41.475805259865744,-142.00388635247592,-86.36085961508226,-196.75392436849768,-26.772377743093138,-37.12353664411443,-51.367729897894755,-49.0209253567419,-29.754288765105468,-37.565468860944584,-45.956469149920316,-58.79224757928523,-55.26933420510557,-38.78410808057246,-35.85038975949242
625.0,-26.581668350718697,-17.769688030059683,-44.35194183803527,-47.85654533705535,-91.10409181104696,-54.87196545878478,-54.573860391144116,-111.76929610289254,-68.6242050828854,-58.18805845484065,-57.70364052431885,-128.2207847921858,-88.25561658453414,-80.09671854579867,-78.65031272335044,-44.74921336960689,-39.459094236825266,-134.79517849374736,-81.85241383377038,-186.74581948712,-25.343561440268537,-35.446698944127455,-48.763526591261325,-46.76267500540095,-28.24047746097094,-35.89610175933655,-44.221240198977775,-55.94462922842791,-52.81191715842982,-36.681984638584844,-34.06972822352137
650.0,-25.525111430737383,-17.27105520675273,-42.06200223856852,-45.59411194059121,-86.55774200957508,-52.21267300848892,-52.09686921667398,-106.49083372938283,-65.27367449680195,-55.43558310129691,-55.19683733833876,-122.05905341355488,-83.90051870626148,-76.29395090130208,-74.80477441315932,-42.425897469380054,-37.598738681127195,-128.19041346303553,-77.7166930302416,-177.5817699310577,-24.033142912201537,-33.895616634472695,-46.376872585248286,-44.6833325637797,-26.852491682435243,-34.35277099079303,-42.60539701250094,-53.33499988216874,-50.55067853628824,-34.757630339812366,-32.43074618125912
675.0,-24.5358727882436,-16.788115943782014,-39.957544842834736,-43.5038623774335,-82.38051552733123,-49.766644701555194,-49.809078412672555,-101.63623976824528,-62.190558313223654,-52.8957820103674,-52.87322956034833,-116.39212635454685,-79.8956326341864,-72.78956363259513,-71.26647678382358,-40.28669755545116,-35.87730772912845,-122.11975308911633,-73.9108646072146,-169.16390263854532,-22.827477563476243,-32.45647682903085,-44.18260662043426,-42.762686907702125,-25.575796276028438,-32.92157163736934,-41.09642469551732,-50.935812821239246,-48.463360378418955,-32.99039686875781,-30.917447804552367
700.0,-23.60735351869556,-16.320392118469965,-38.017840605865786,-41.56709987452643,-78.5311216223739,-47.51013293333106,-47.689917107285275,-97.15829025529086,-59.34513915879139,-50.54538655779205,-50.713275226709435,-111.1648544103988,-76.20184563962185,-69.55058470692587,-68.00125309256158,-38.31123102533149,-34.27986468319081,-116.52346060821391,-70.39828089859026,-161.40851224692398,-21.71490034884394,-31.117441430259596,-42.15922286743518,-40.98344615670745,-24.397969170538467,-31.5905929161005,-39.683575011325054,-48.723529724992645,-46.5309288586754,-31.362636697693187,-29.51614464648688
725.0,-22.733837365958824,-15.867417198503833,-36.225068420933766,-39.7677283133462,-74.97406455353295,-45.4227187410788,-45.72167780175523,-93.01638300335036,-56.71185355962763,-48.364366133891025,-48.70013400479059,-106.32980518379874,-72.78552842702551,-66.54865326172218,-64.97970686059897,-36.48195744448128,-32.793536723976864,-111.3501548020349,-67.14741042943531,-154.24361204835316,-20.68538216076101,-29.86830526223076,-40.288236058927886,-39.33073065928542,-23.30833395925289,-30.349572193929834,-38.35756054107916,-46.6779233817311,-44.73701313790731,-29.85918227882728,-28.21505531169022
750.0,-21.91034450304836,-15.428736075871592,-34.56382722661825,-38.09181642803082,-71.67867120780248,-43.48675324544465,-43.889036233806266,-89.17542633651261,-54.26859675600895,-46.33538647183902,-46.81921564575586,-101.84597121111935,-69.61761619759795,-63.75924686766628,-62.17641482854549,-34.783703727781045,-31.407170687930105,-106.55541338990813,-64.13098297246889,-147.60697487694918,-19.730255209028535,-28.700222830062994,-38.553674134487544,-37.79166790367668,-22.297666354393662,-29.18961857168686,-37.110310366889216,-44.78152063425036,-43.06745720694199,-28.466929764230255,-27.00398554215809
775.0,-21.132513597301575,-15.003904900797837,-33.02074287743445,-36.527246668858986,-68.61830759422507,-41.686907615374416,-42.17866456996705,-85.60494373874651,-51.99616229516057,-44.443373025680636,-45.05781602756986,-97.67772858098208,-66.6728680077146,-61.161058773859395,-59.56928422035749,-33.20328124717724,-30.111055478211632,-102.10064681589203,-61.325300129114545,-141.4445533047113,-18.841991769684363,-27.6054881654794,-36.94166951704766,-36.355066250812854,-21.357957767926212,-28.102990262973304,-35.934773321021524,-43.019153764582946,-41.50995907577027,-27.174503592229648,-25.874070502016554
800.0,-20.39650597276275,-14.592490915679674,-31.584148997542226,-35.0634301595819,-65.76974278782006,-40.009807751662436,-40.578917445820835,-82.2783470550163,-49.87778688785746,-42.67515638685505,-43.40482159625795,-93.79399118675153,-63.929265356994605,-58.735492263292365,-57.13903056221089,-31.729174757979028,-28.896696534352596,-97.95218328460673,-58.70967522927522,-135.709196176422,-18.014024594521498,-26.57735611179825,-35.440127377111295,-35.01115017884919,-20.482223472089398,-27.082913950062043,-34.82475834586159,-41.37759649634714,-40.05377810143664,-25.971984205501876,-24.817565609967538
825.0,-19.698927182491804,-14.194072289022634,-30.243826084221595,-33.69107368876585,-63.112628966406184,-38.44373566746899,-39.07957535054493,-79.1723423892395,-47.89877817525507,-41.019182312231095,-41.850467671810044,-90.16751906507223,-61.367520422665486,-56.466247227260645,-54.86875048468153,-30.351287910197886,-27.756631318515147,-94.08052023675508,-56.26597511988718,-130.3595986256908,-17.24060011746758,-25.60989623151121,-34.03845450065239,-33.75134393805051,-19.66434584414867,-26.123437173400948,-33.77480405346386,-39.84526658712624,-38.68949592258278,-24.850685473854714,-23.82767558599159
850.0,-19.036762406401195,-13.808237949376572,-28.990786836967516,-32.40198799071343,-60.62907357574476,-36.97838379386414,-37.67163350934945,-76.26644129872341,-46.0462083164364,-39.46527304152285,-40.38613950918812,-86.77434905733084,-58.97067132646577,-54.3389799329496,-52.74356995305043,-29.06073369527247,-26.684277373970534,-90.45970799774884,-53.97824286556141,-125.35943750310814,-16.516657684518616,-24.697872599022194,-32.72733624145369,-32.56809360716948,-18.898945441347305,-25.219306922882424,-32.780071442206605,-38.41198123956041,-37.40881990237483,-23.802971560408874,-22.898413816693207
875.0,-18.4073229095152,-13.434587419271551,-27.817098441971638,-31.18892903293862,-58.30328514712155,-35.60465159347598,-36.34712713231873,-73.5425561619503,-44.30866021672647,-38.00442963040389,-39.00420754761144,-83.59332329784712,-56.72374699596714,-52.34102131394555,-50.750352840026075,-27.849660841018782,-25.67380644126783,-87.0668391646511,-51.83238517872815,-120.67665513383764,-15.837729585834124,-23.83664428483263,-31.498551907629558,-31.45471983765454,-18.18127431562673,-24.36586916613643,-31.836255114741363,-37.06875471863007,-36.20442052935935,-22.822105320247452,-22.024485953309338
900.0,-17.808201410014053,-13.07273064915376,-26.71573460609677,-30.04546587213031,-56.12127840581115,-34.314476230158625,-35.09898593290152,-70.98466330165408,-42.67601614834105,-36.62866731131719,-37.69789018767006,-80.6056964814729,-54.61348806261085,-50.46114237875733,-48.87745810737331,-26.71110916461024,-24.720039565057448,-83.8816231706825,-49.81591199246732,-116.28286256202392,-15.199857831791205,-23.022082494498672,-30.34482108234455,-30.405295291934117,-17.507127224267894,-23.558985223310263,-30.939509380314572,-35.8076299294741,-35.069796134419846,-21.902122082398577,-21.201193012652347
925.0,-17.237234671427846,-12.722287851321413,-25.68045169582568,-28.965870035897744,-54.07062742075765,-33.10069083112605,-33.92091235802598,-68.57852100357356,-41.139280732879136,-35.330877623178644,-36.46113887798023,-77.79480698574912,-52.62811317427961,-48.689357802492474,-47.11453639979991,-25.6388884046722,-23.818359219995294,-80.88602991187828,-47.9177183104537,-112.15283967529469,-14.599524494487785,-22.250501200723775,-29.259675004844972,-29.414542082457398,-16.872767335131684,-22.794961785555014,-30.08638640989191,-34.62153749956283,-33.99915972470914,-21.037723998529188,-20.424350276873536
950.0,-16.692471988215786,-12.382889333860627,-24.70568452761502,-27.945022451842686,-52.14025791941591,-31.956905242115692,-32.80727914529467,-66.31143228529349,-39.690431947429936,-34.10471237044595,-35.28854139331302,-75.14580006810597,-50.757122339737364,-47.016760651116385,-45.45235879052151,-24.627476206964435,-22.964635320207183,-78.06398971306761,-46.12790054527442,-108.26411436174351,-14.033593107103764,-21.5185987743163,-28.237348378044278,-28.477745509756158,-16.27486374383314,-22.070492051296544,-29.273784211224537,-33.50417727341841,-32.98734383516214,-20.224191158087713,-19.690219070080545
975.0,-16.172148506943806,-12.054175334581359,-23.78645827171664,-26.978334763675935,-50.3202717165836,-30.877405224842132,-31.753042724767955,-64.17204435604869,-38.322295117509746,-32.944485486557014,-34.17524003215527,-72.64539377749509,-48.99113064438186,-45.43538263658566,-43.88267190724033,-23.671931825377296,-22.15516261994175,-75.40113952008839,-44.43760115399653,-104.59660651272533,-13.49925912929621,-20.823408632776736,-27.272687922197644,-27.590681159902022,-15.710438672519482,-21.38260597455208,-28.49890265106448,-32.44991817663979,-32.02972014318633,-19.45730645101967,-18.995449091065097
1000.0,-15.674662536830589,-11.735795854953265,-22.918313640772837,-26.061682507808698,-48.60179761960294,-29.857066858262385,-30.753669681454422,-62.1501783244165,-37.02843586843837,-31.845089662777667,-33.11686211710665,-70.28168009403636,-47.321727010939426,-43.93807542356172,-42.39807482151188,-22.767822787608633,-21.38660751150075,-72.88460722773944,-42.83887661805974,-101.13232552208676,-12.99400788627207,-20.162257322628967,-26.36107473249903,-26.749553011864194,-15.176822647604773,-20.728628022317775,-27.759206107911336,-31.45371321787048,-31.12213124624022,-18.733291764424497,-18.337029447015322
1025.0,-15.198556168550596,-11.427410494041633,-22.09724308775986,-25.191348118166136,-46.97686427498913,-28.89128353876042,-29.805074039512284,-60.2366839713851,-35.80306879362585,-30.801925216812986,-32.109460692906374,-68.0439552726963,-45.74135371969142,-42.51840938408773,-40.99191398535747,-21.91116231159711,-20.655962615591452,-70.50282763160666,-41.32458478099348,-97.85511214696865,-12.515578700769305,-19.53272876154408,-25.498358074282535,-25.950940665477248,-14.671616287329762,-20.106141152120298,-27.052391616377943,-30.51102703044122,-30.26083251196867,-18.04875357165059,-17.71224689623886
1050.0,-14.74249864991769,-11.128688282443262,-21.319636172338058,-24.36397211513578,-45.43829128748008,-27.97590347188713,-28.90356355699929,-58.423315396147274,-34.64097921634946,-29.810839157286495,-31.149463718549793,-65.92257451578921,-44.24320322044084,-41.17058688436518,-39.65819320682536,-21.09835568049695,-19.960507864941487,-68.2453847322725,-39.88828831680942,-94.75041733531633,-12.06193418184247,-18.932633609672397,-24.680798701655707,-25.191754162012664,-14.19265759183991,-19.512955967368885,-26.37636158223567,-29.617773852403023,-29.44244231079606,-17.400636343083864,-17.118650093056605
1075.0,-14.305272069655024,-10.839307516222373,-20.58223259803414,-23.576511141306668,-43.979595626841366,-27.1071759414567,-28.04579355806614,-56.702624124190834,-33.537455910229,-28.868072781001157,-30.23363036744194,-63.90882700720763,-42.82112941469677,-39.88936773135195,-38.39149621590243,-20.32615411742916,-19.297777023736092,-66.10287610119035,-38.52417170235037,-91.80511200107087,-11.631233827686405,-18.359982931909506,-23.9050201426655,-24.46919515477541,-13.7379938353189,-18.947084202906236,-25.729200319371277,-28.770264236269664,-28.663899256983747,-16.786182500883427,-16.554018853322116
1100.0,-13.885758982055506,-10.558955590846498,-19.88208169567468,-22.82620175051578,-42.59491088184102,-26.281704954364994,-27.22872709821792,-55.06786688911999,-32.48823303220123,-27.970216442724492,-29.35901330199483,-61.99482806347666,-41.4695711004576,-38.670004839125426,-37.18691981739487,-19.591614966492127,-18.6655287777168,-64.06679579767273,-37.22696954449701,-89.00732282243186,-11.221811253428697,-17.81296546570285,-23.1679666781038,-23.78072341400435,-13.305857324115838,-18.40671584794635,-25.109153796707343,-27.965159091819086,-27.922425335335408,-16.202897872861307,-16.016337638110127
1125.0,-13.482931670616658,-10.287328835122397,-19.216507346770733,-22.1105290516929,-41.27891735584512,-25.496409109404414,-26.44960047310875,-53.51292579684487,-31.489439832599913,-27.114170379433478,-28.522925990971775,-60.17342573433881,-40.183485682956245,-37.50818852059285,-36.04001598357313,-18.89206719871474,-18.061721683606574,-62.12943295057679,-35.99190449523496,-86.34629001413022,-10.832154477704115,-17.289927931234043,-22.466866968114093,-23.1240278316902,-12.894644416210689,-17.89019933730491,-24.514612092479954,-27.199429914698346,-27.215493991447754,-15.648521786957039,-15.503772596287915
1150.0,-13.095842801240613,-10.024132345131948,-18.583077516037953,-21.42719946573331,-40.026781348229214,-24.748486739246793,-25.705893254024545,-52.032238980468904,-30.537556956885908,-26.29711066570571,-27.722914300221817,-58.438119650061864,-38.95829158519058,-36.39999808803071,-34.94674152586618,-18.22508143231902,-17.484492390256964,-60.28378362029856,-34.8146332949285,-83.81224372889257,-10.460888800604266,-16.78935791906691,-21.799202463271566,-22.497001237661163,-12.502897302974029,-17.396024341254776,-23.94409414113123,-26.47032425400753,-26.540802424677956,-15.121001097491218,-15.014651621761772
1175.0,-12.723617258042816,-9.769079818168038,-17.979577704045788,-20.774116980280212,-38.83410224842567,-24.0353855371029,-24.995302172740626,-50.62074017717796,-29.6293783556058,-25.516459534356816,-26.956731718654986,-56.78299028811665,-37.78981805915286,-35.341859670530525,-33.9034142165215,-17.588443794658794,-16.93213664395014,-58.52347396257812,-33.691199732638246,-81.39629631266783,-10.106761885412586,-16.30986896974289,-21.16267988427453,-21.897718456019977,-12.129288139492248,-16.922806764654098,-23.396234429039957,-25.775335633942532,-25.89624745324447,-14.61846755537919,-14.54744697416985
1200.0,-12.365444989305612,-9.521893386670481,-17.403987746149003,-20.149362390143846,-37.696866298942275,-23.354776011390452,-24.31571829173383,-49.273805920699836,-28.761977983271013,-24.769859424284626,-26.222317687878107,-55.202637136850846,-36.67426131560718,-34.330509338836755,-32.90667441934585,-16.98013306532555,-16.403092671568533,-56.84269304540615,-32.617993514217844,-79.09034810081619,-9.768630721347009,-15.850187524272618,-20.5552071741236,-21.32441712659626,-11.772605178992912,-16.469275631195103,-22.869771352918747,-25.11217727601407,-25.279904426592932,-14.13921803274424,-14.100760087285574
1225.0,-12.02057471927034,-9.282303452161901,-16.854461477817154,-19.55117509499374,-36.61140607095359,-22.7045282192927,-23.665206988153596,-47.9872092568771,-27.932680600791098,-24.05515022182705,-25.51777859087606,-53.6921244826898,-35.60814606729568,-33.362960776908245,-31.95345144227442,-16.398300631442055,-15.895926601695745,-55.23613393953483,-31.591714193739413,-76.88700482011373,-9.445450197408649,-15.409141477066367,-19.97487242434623,-20.77548089403969,-11.431740623398385,-16.034261581798994,-22.363537001682026,-24.478759075559807,-24.690008746359666,-13.681697192537095,-13.673308250979773
1250.0,-11.688308404550519,-9.05004851918364,-16.329308863485867,-18.97793709472528,-35.57436484954392,-22.08269131823279,-23.041990355695447,-46.75707906525656,-27.1390361059018,-23.37034924747987,-24.84137102641041,-52.24693375144657,-34.58829172556961,-32.43647686153792,-31.04093395049285,-15.841252861218125,-15.409319638118768,-53.69894192385009,-30.60933945894242,-74.77950497109947,-9.136263060767702,-14.98565010594818,-19.41992535687252,-20.249424631056275,-11.105679948325792,-15.616686759752204,-21.876448161074855,-23.873167374100532,-24.124939627881364,-13.244482259473426,-13.2639129030558
1275.0,-11.367996332963273,-8.824875029231674,-15.826980249441227,-18.428158879501005,-34.58266525201186,-21.48747554683551,-22.444431690852234,-45.57986421393112,-26.378796906436946,-22.713633610244088,-24.191487054492978,-50.86292150232497,-33.61178260990707,-31.548544611798082,-30.166543882581518,-15.307435563650289,-14.94205674500615,-52.22666882865544,-29.668097172695497,-72.76165582031553,-8.84019106878257,-14.578715189372483,-18.888761009047485,-19.744881414852568,-10.793492498938754,-15.215555891027748,-21.407498372013283,-23.29364714135798,-23.58320579228564,-12.826269602680133,-12.87148930880178
1300.0,-11.059032778299507,-8.606537194692455,-15.346052453639395,-17.900466958243683,-33.633481507060324,-20.917236306906556,-21.871021781530544,-44.45230189415696,-25.649897926037923,-22.083324610090724,-23.56664114680489,-49.536282312091316,-32.67594162853621,-30.696853053095694,-29.32791339794002,-14.795420253356987,-14.493016640085788,-50.815232690247626,-28.765440664491315,-70.82777684287154,-8.556427173222573,-14.187413150279413,-18.37990532370744,-19.260591019282764,-10.49432318452875,-14.829948397855036,-20.955750899744253,-22.738586240464837,-23.063432827184787,-12.42586288513968,-12.495037440424888
1325.0,-10.760852137607174,-8.394796832778916,-14.885216448834512,-17.393592808169213,-32.72421490933335,-20.37046006770828,-21.320366758755572,-43.37138958024367,-24.950438893932105,-21.47787391734888,-22.96545861619134,-48.26351590216637,-31.778306970339408,-29.879273609512705,-28.522864454969216,-14.303891981970276,-14.061162922902875,-49.46088201496277,-27.899026842395074,-68.97264963083342,-8.284228599719919,-13.810888090349435,-17.892002391416963,-18.795389721220275,-10.207385125810596,-14.459011408171545,-20.52033249262825,-22.20650149942793,-22.56435199379082,-12.04216257210839,-12.133633897004396
1350.0,-10.472925488439328,-8.189423199466242,-14.443266431596967,-16.906363060272373,-31.852472035924503,-19.845751855245606,-20.79117730777957,-42.33436014264951,-24.278668622098756,-20.89585129807657,-22.386665332901455,-47.04139795743301,-30.916611416490017,-29.093842695493734,-27.74939067883703,-13.83163853286212,-13.645536190868167,-48.16016405486991,-27.066696759532825,-67.19147342882565,-8.022910705843952,-13.44834559867632,-17.423803129580165,-18.34820124967387,-9.93195313065398,-14.101953544044925,-20.100427827407536,-21.696026353144212,-22.08479029139609,-11.674156621576111,-11.786424729311843
1375.0,-10.194757512617256,-7.990192823427872,-14.019090100072836,-16.43769076269926,-31.01604537180711,-19.34182412391154,-20.282259064656518,-41.338659711120286,-23.632971016359196,-20.33593368813001,-21.829078563282877,-45.86695416585871,-30.088763937355598,-28.338746225918268,-27.005641227290333,-13.377540805554068,-13.245247017241947,-46.90989658426625,-26.266458322451534,-65.47982558024765,-7.771841518215336,-13.09904723581135,-16.974155214581266,-17.918028731238298,-9.667357892141355,-13.758039389251916,-19.695274552917326,-21.205899854736582,-21.623661617846924,-11.320912205656185,-11.45261905366429
1400.0,-9.925883740693994,-7.796889339971358,-13.611659988725336,-15.986567586604119,-30.21289604173808,-18.857486836895276,-19.79250404929789,-40.381927942512995,-23.011852604193702,-19.79689544688704,-21.29159879016726,-44.737437075416786,-29.29283328809521,-27.61230580384548,-26.289906404633555,-12.940564240976055,-12.85946968318787,-45.7071427391268,-25.496470873369713,-63.83362626990628,-7.530436863358216,-12.762305608335174,-16.541994109482037,-17.503947506493613,-9.412980818076548,-13.426584550534333,-19.30415885684919,-20.734956883874595,-21.179958887841032,-10.98156833345668,-11.13148335559853
1425.0,-9.665868077734164,-7.609303324974256,-13.220025729672155,-15.552056858165388,-29.441138388782758,-18.3916386062087,-19.320883007022626,-39.4619803965919,-22.413931392619535,-19.277599645353856,-20.773202393986917,-43.65030542152091,-28.527033356695032,-26.91296637909953,-25.600604809074525,-12.519751159638625,-12.487436571179424,-44.54918854313134,-24.755031415967036,-62.249107035098426,-7.298156019006946,-12.43747996106833,-16.12633505199747,-17.10509870965813,-9.168249413888608,-13.106951239115679,-18.926411490823575,-20.282119404064307,-20.752746990403683,-10.655329264214934,-10.822336398141791
1450.0,-9.41430057645808,-7.427232128820062,-12.843307128277672,-15.133287316541798,-28.699026175571998,-17.94325876383448,-18.866438548343613,-38.57679276416354,-21.837926895252377,-18.77699026346276,-20.272935090388636,-42.60320562610095,-27.78971005223526,-26.23928519947426,-24.93627182827384,-12.114213902437028,-12.128433139838378,-43.43352279582244,-24.040562286150323,-60.72278259002287,-7.0744978227318756,-12.123972224124685,-15.726265886210035,-16.720683518734212,-8.932633151698974,-12.79854430924533,-18.561404198015364,-19.84638864142171,-20.34115648337661,-10.34145861487273,-10.524544661264295
1475.0,-9.17079542840183,-7.250479710334048,-12.480687955945543,-14.729447511191896,-27.98494021486786,-17.511400252987325,-18.42827899174838,-37.7244867267088,-21.28265118952438,-18.29408518838043,-19.789906034280147,-41.593955210047696,-27.079329550028536,-25.589921900575078,-24.29554932304849,-11.72312867876688,-11.781793411128834,-42.35781904245576,-23.351600096172394,-59.25142557013724,-6.858997183343592,-11.821223460560958,-15.340940637353127,-16.349957996031964,-8.705639767481793,-12.500807699157049,-18.2085464951821,-19.42683807482178,-19.944377936697997,-10.039274079308687,-10.23751824909993
1500.0,-8.934989147658174,-7.078856470719244,-12.131391720388546,-14.33976210791503,-27.297339950585698,-17.095145932026966,-18.00553551567628,-36.903242633607164,-20.747000883598645,-17.827969920100585,-19.323282512284063,-40.62052789524955,-26.39446773477781,-24.96362960090686,-23.677213671837656,-11.345767350657631,-11.44693322135808,-41.31999400513032,-22.686860425997743,-57.8321557894765,-6.651203292181341,-11.52869201198273,-14.969536431165379,-15.992191138386621,-8.48677462472365,-12.213183915843892,-17.86724545609853,-19.022532519463432,-19.561582225482134,-9.748124031867883,-9.960688554362122
1525.0,-8.70653892509876,-6.912179087492284,-11.794677702814374,-13.96348840094227,-26.63475556866637,-16.69360493241343,-17.597359272954773,-36.11129228061983,-20.229949888346365,-17.377791902914588,-18.872285155834152,-39.681040201849015,-25.73380070379128,-24.359246886366925,-23.08016533054148,-10.981490356275689,-11.123344459097938,-40.318188814284696,-22.04522468293881,-56.46241354009822,-6.450677855709109,-11.245851663751578,-14.611250406996914,-15.646662801728342,-8.275539825810108,-11.935113247479807,-17.53690518509435,-18.63252667084762,-19.191920156376455,-9.467384315364384,-9.693505994716082
1550.0,-8.485121133829804,-6.750270348419301,-11.46989298493247,-13.599968760854548,-25.995892084058127,-16.306020570933356,-17.203029978263558,-35.34713479085924,-19.730542903276508,-16.942755411880484,-18.43618361591631,-38.77373937147158,-25.096096210138537,-23.775690583294143,-22.503308229875547,-10.629629137392033,-10.810478671833504,-39.35052971085491,-21.425505871224782,-55.139601956985125,-6.2570491001688815,-10.972245580735521,-14.265408131683461,-15.312773020500908,-8.07154460605587,-11.666144240671946,-17.217037522117995,-18.25608618295832,-18.834744515339636,-9.196510945808305,-9.435493566062455
1575.0,-8.27042996907754,-6.592958985451875,-11.156430296146961,-13.248588854692262,-25.379545064930912,-15.931689524413926,-16.821875685870122,-34.60937501535144,-19.24788953689852,-16.522116932432617,-18.01429264796865,-37.896992468714146,-24.48020594092714,-23.211949232074577,-21.94561914699375,-10.28955824462818,-10.507820230179467,-38.41526851530737,-20.826593630019158,-53.86129890833946,-6.069971402954828,-10.70744586843478,-13.931383228332047,-14.98996244784187,-7.874426748866021,-11.405855183010347,-16.907183723493702,-17.892530761075054,-18.489454029801095,-8.934998572379563,-9.186206062345008
1600.0,-8.062176207800093,-6.44007950866286,-10.853723167072896,-12.90877312964295,-24.784590966740843,-15.569955280726456,-16.453266779337383,-33.89671048138378,-18.781158991956303,-16.115180979023823,-17.60596856190888,-37.04927653167948,-23.885058539017166,-22.66707718433833,-21.40614390196169,-9.960694003491245,-10.214885945822767,-37.51077658458033,-20.24745231543492,-52.625249006482825,-5.889122058096359,-10.451050267017898,-13.60859123900843,-14.67770694581197,-7.683848062310625,-11.15384963292899,-16.606910163623667,-17.5412253528038,-18.155485339753007,-8.682376185918582,-8.945226464856496
1625.0,-7.860086075132289,-6.2914720401823505,-10.561242624424937,-12.579981799959624,-24.20998054654433,-15.220204372578085,-16.096612686628518,-33.207923902151364,-18.329575254548832,-15.721296305367508,-17.21060599781553,-36.22916965827776,-23.309653287806285,-22.140189256287456,-20.883991753689585,-9.642491144244497,-9.931222557767878,-36.635535023575606,-19.687114940995098,-51.42934990130573,-5.714199429526931,-10.202680232074298,-13.296486232375653,-14.37551484575342,-7.49949244682406,-10.909754528108419,-16.315806591705105,-17.201576499398985,-17.832310049463572,-8.43820431723638,-8.712163750855028
1650.0,-7.663900206332545,-6.146982148133583,-10.278494195737283,-12.261708109613808,-23.65473289474405,-14.881862962979943,-15.751358895584058,-32.541876385932405,-17.89241273355889,-15.33985246461021,-16.827634992587598,-35.43534292877524,-22.75305438848788,-21.630455878899006,-20.3783303219829,-9.334439747262069,-9.656404448665663,-35.78812581982884,-19.144677687177882,-50.27163986973823,-5.544921276959254,-9.961979187017162,-12.994557729172506,-14.0829244596016,-7.32106414331014,-10.673218463035427,-16.03348453657283,-16.87302902826768,-17.519432049152023,-8.202072499194914,-8.486650902919889
1675.0,-7.473372694253987,-6.006460680568752,-10.005015191408658,-11.953475841739372,-23.11793001948755,-14.554393745519278,-15.416984238258973,-31.897501271447187,-17.468992303220904,-14.970276682752878,-16.45651830706014,-34.666553076977166,-22.214385767638063,-21.13709869284718,-19.888380980626966,-9.036062470790434,-9.390031567070743,-34.96722380467444,-18.619294920357383,-49.15028656548828,-5.38102323626263,-9.728610929132413,-12.702327912183364,-13.799501815789712,-7.148286142732512,-10.443910117974568,-15.759575844119452,-16.55506305086578,-17.21638507827624,-7.973596964885979,-8.268343097960427
1700.0,-7.288270213535944,-5.869763599405001,-9.740372235402392,-11.654837049340586,-22.59871192658394,-14.237293126912185,-15.092998416325992,-31.27379852470633,-17.05867770721879,-14.612031012965268,-16.09674898665489,-33.92163583276059,-21.69282636032026,-20.659386542145874,-19.41341467291196,-8.746912031940731,-9.131727534324366,-34.17158935561505,-18.110174668492526,-48.06357680929341,-5.222257438374405,-9.502258173393807,-12.41934909128664,-13.524838596499716,-6.980898740501943,-10.2215168237002,-15.493731333580827,-16.247191234418974,-16.92273050543141,-7.752418557502357,-8.05691605728239
1725.0,-7.108371213732501,-5.736751814360302,-9.484159019266436,-11.365369984707897,-22.096272144450484,-13.930088663094812,-14.77893974298411,-30.66982964017576,-16.660872287538815,-14.264609742198896,-15.747848131775585,-33.19949986765325,-21.187605820269965,-20.196631825865417,-18.952748106648226,-8.466568915127983,-8.881137917238759,-33.40006176451359,-17.616574507039942,-47.00990731384573,-5.068391252634293,-9.282621220010855,-12.14520139759024,-13.258550255718996,-6.818658220912644,-10.005743248157762,-15.235619560569344,-15.948956319572526,-16.638055302767924,-7.538200830333732,-7.852064541280945
1750.0,-6.933465174484408,-5.607291016889313,-9.23599425704267,-11.08467720757204,-21.60985364938859,-13.632336723404919,-14.474373079627386,-30.084712995638142,-16.275016005513447,-13.927537024780262,-15.409362856885194,-32.49912128297658,-20.69800061427493,-19.748187171939154,-18.50574029063861,-8.194639285128186,-8.637928649918361,-32.65155320485686,-17.137797813899628,-45.98777624966958,-4.919206142047986,-9.069416733284982,-11.879490683642755,-13.000274299919608,-6.661335658570683,-9.79631019280941,-14.984925676128354,-15.659928859272913,-16.361970195372486,-7.330628317792207,-7.653500974215101
1775.0,-6.763351916617432,-5.481251514119314,-8.995519821171133,-10.812383854286013,-21.138745151543322,-13.343620360280395,-14.17888794798701,-29.51761961584899,-15.900582726168972,-13.600364720526258,-15.080864419582852,-31.81953858690149,-20.22333046271289,-19.3134424011452,-18.071789378866562,-7.930753084503377,-8.401784589938162,-31.925043238874498,-16.67319035685719,-44.995775568811894,-4.774496619398594,-8.86237662075363,-11.621846609310625,-12.749668715234483,-6.508715825232202,-9.592953487802186,-14.741350372293061,-15.379705156973989,-16.094107968266925,-7.1294049605312235,-7.460954186164467
1800.0,-6.597840963729867,-5.358508062786121,-8.76239904171178,-10.548136052298805,-20.682277706318832,-13.063547364417323,-13.892096800609803,-28.96776930509025,-15.53707774020588,-13.282670417425766,-14.7619465030809,-31.159848112739724,-19.762955092448635,-18.89182175290784,-17.65032979241463,-7.674562297401248,-8.172408195747783,-31.21957381189002,-16.222137181059303,-44.032584012463154,-4.634069294359299,-8.661247002830278,-11.371920895186568,-12.506410526804013,-6.360596191761279,-9.39542297630906,-14.504608905705512,-15.107905384705,-15.83412191561681,-6.93425266960933,-7.274168260708404
1825.0,-6.436750949427679,-5.238939703169925,-8.536315153151522,-10.29159946591697,-20.23982161989804,-12.791748487534326,-13.613633434420894,-28.43442711310867,-15.18403550076044,-12.974055621124311,-14.452223637307243,-30.519199836030555,-19.31627127200837,-18.482781347682895,-17.240829592419487,-7.425739363713496,-7.949518313614844,-30.534244687058944,-15.784059767627674,-43.09696073674005,-4.497742002843702,-8.465787264225138,-11.129385727389902,-12.270194477544251,-6.216786016047301,-9.203481579452795,-14.27443019175983,-14.84417186367526,-15.581684418435039,-6.744910016305301,-7.092901478129246
1850.0,-6.279909065889431,-5.122429593031262,-8.316969874769367,-10.04245796086881,-19.810783620913323,-12.527875816825022,-13.34315153377214,-27.916900102775646,-14.841017554571218,-12.674144095374054,-14.15132974546111,-29.89679355258093,-18.88271010221123,-18.08580686342907,-16.842788080260426,-7.183975729313536,-7.732849063689565,-29.868209278723008,-15.358413437650922,-42.18773949798632,-4.36534301077996,-8.275769179375974,-10.893932299368442,-12.04073181497094,-6.077105508715861,-9.016904434155437,-14.050555962571538,-14.58816749197091,-15.336485638556224,-6.561131035643329,-6.9169253450484245
1875.0,-6.127150549903402,-5.008864841546904,-8.104082112035421,-9.800412376523786,-19.39460427330959,-12.271601286884867,-13.080323330834593,-27.414534391195364,-14.507610649352815,-12.382580339305868,-13.858916804259684,-29.291875383663594,-18.461734538308963,-17.700411406077837,-16.45573360372187,-6.948980519621621,-7.522148815888095,-29.220670847073997,-14.944684978549942,-41.303823345216436,-4.236710285332042,-8.09097610495095,-10.665269477854386,-11.817749175933036,-5.941385069340871,-8.835478097075312,-13.832739982782188,-14.33957430555224,-15.098232317966758,-6.382684132966071,-6.746023702378889
1900.0,-5.978318202925511,-4.898136343245664,-7.897386767841693,-9.565179395797545,-18.990755608076427,-12.02261531639763,-12.82483837247445,-26.926712438970025,-14.183425001098886,-12.099028188872797,-13.574653607355668,-28.70373457814321,-18.052837122213514,-17.326133556036176,-16.079221550112557,-6.720479325092274,-7.317179247275666,-28.590879020757033,-14.542390472243,-40.44417977285398,-4.111690827327322,-7.911202233217173,-10.443122581481825,-11.600987560180815,-5.8094645866354115,-8.658999808515615,-13.620747317843449,-14.098092160215806,-14.866646673728784,-6.209351084018692,-6.579991904335016
1925.0,-5.833261942065412,-4.79013861194445,-7.696633653530754,-9.336490503812744,-18.598738953853506,-11.78062555819298,-12.576402383885585,-26.45285056496901,-13.868092706730865,-11.823169531132567,-13.298224622502573,-28.131700584448417,-17.655537905625195,-16.962535574631055,-15.71283250930259,-6.4982130884067875,-7.117714473498215,-27.978126617514864,-14.1510733066802,-39.607836291791536,-3.990140059300835,-7.736251900716475,-10.227232261773008,-11.3902013846418,-5.681192796778962,-8.487276810826629,-13.414353649983939,-13.863437523472374,-14.641465379755587,-6.040926120001942,-6.4186360619993135
1950.0,-5.691838379224927,-4.684769614684019,-7.501586490721803,-9.114091027306179,-18.218082948473334,-11.545355752458038,-12.33473622025228,-25.992396666278605,-13.561266289009058,-11.554703121202552,-13.029328934014252,-27.575140368093535,-17.26938254684973,-16.609201756061985,-15.356170591391738,-6.2819370842053415,-6.923540247578866,-27.38174673605065,-13.770302354214902,-38.793876381117116,-3.8719212641419096,-7.565938947261595,-10.017353477260214,-11.185157611115178,-5.55642669464031,-8.320125716387606,-13.213344637555917,-13.635342366429862,-14.422438627597373,-5.877215089931521,-6.261772345614883
1975.0,-5.553910425894505,-4.581930605664995,-7.3120219958474895,-8.897739247586244,-17.848341715326185,-11.31654467392331,-12.09957489860291,-25.54482812507331,-13.262617361949559,-11.293343492752891,-12.767679262924549,-27.033455952918274,-16.893940565840243,-16.265736911895008,-15.008861885271916,-6.071419983124035,-6.734453220075275,-26.801110095006475,-13.399670301959082,-38.00143578667124,-3.756905069837779,-7.400086120772655,-9.813254552447628,-10.985634940836285,-5.435030993186679,-8.157371920752805,-13.017515313895776,-13.41355314677496,-14.209329259191408,-5.7180346934195185,-6.10922634036598
2000.0,-5.419346921362473,-4.4815259601837,-7.127729040127875,-8.68720558056846,-17.489093190052433,-11.09394516476496,-11.870666702802394,-25.109649885982233,-12.971835406169786,-11.038819953820088,-12.513001058014872,-26.50608216640429,-16.528803743553407,-15.931764976434497,-14.670553045724182,-5.866442992728183,-6.550260255196872,-26.235622597371698,-13.038792120760165,-37.229699135992064,-3.644968976261759,-7.238524523923688,-9.614716314151629,-10.79142307002191,-5.316877626843901,-7.998849056990913,-12.82666952222188,-13.197829874844604,-14.001911965242021,-5.56321177768513,-5.960832450935438
2025.0,-5.288022282313838,-4.383463008568031,-6.948507878427692,-8.482271818057807,-17.13993758450196,-10.877323245782817,-11.647772355329925,-24.686392689150622,-12.688626644631903,-10.790875660536944,-12.265031651554724,-25.992484571370774,-16.17358465308667,-15.606927722465143,-14.340909997912926,-5.666799068667522,-6.370777798016819,-25.684723100780985,-12.68730366076165,-36.477896842218655,-3.5359969203545814,-7.081093098968331,-9.421531298496841,-10.60232200109078,-5.201845294990697,-7.844398487639142,-12.640619383436729,-12.987945255569302,-13.799972543521216,-5.412582693215262,-5.816433350595081
2050.0,-5.159816171992729,-4.287651870113429,-6.774169441085934,-8.282730425018764,-16.80049597618126,-10.666457299142646,-11.430664250111255,-24.27461144564649,-12.41271301018568,-10.54926676209971,-12.023519474203255,-25.492157568082984,-15.827915311291546,-15.290883577886714,-14.019616749229016,-5.472292190032067,-6.195831288390422,-25.147881376072935,-12.344860362688165,-35.7453022722053,-3.4298788764051986,-6.9276381474691116,-9.233503022503722,-10.418141404773985,-5.089819042144624,-7.693868831044844,-12.459184794008273,-12.783683899778696,-13.603307211942177,-5.26599270304268,-5.675879471001831
2075.0,-5.0346131872784685,-4.194005287018781,-6.604534683378406,-8.088383888082634,-16.47040901254802,-10.461137316619654,-11.219125741229014,-23.873883743152575,-12.14383119714346,-10.313761610939075,-11.788223324056798,-25.00462265235091,-15.491445940651277,-14.983306534681756,-13.706374299403919,-5.282736693469704,-6.025254617616283,-24.6245962381831,-12.011136075046299,-35.031229156490866,-3.3265104884562886,-6.778012881972135,-9.050445314791196,-10.23870002879425,-4.980689871730317,-7.5471155191793615,-12.282192951378647,-12.584841598989742,-13.411721971756299,-5.123295441095516,-5.539028529242286
2100.0,-4.912302562182413,-4.102438458322221,-6.439433987784387,-7.899044110996329,-16.14933572053047,-10.26116420785975,-11.012950482829314,-23.483808471036202,-11.881731789860757,-10.084140032637663,-11.558911685306438,-24.529426816571558,-15.163843832187109,-14.683885142474537,-13.400899640683392,-5.097956661146428,-5.858889624256196,-24.114393834965636,-11.685821968370341,-34.33502922090217,-3.225792732143644,-6.632077006951226,-8.87218170044047,-10.06382514920573,-4.874354390617432,-7.404000384287471,-12.109477904592078,-12.391224658359235,-13.225032016668715,-4.984352415507508,-5.405745089000341
2125.0,-4.792777886413504,-4.01286887383717,-6.278706614684859,-7.714531853123034,-15.836952412557826,-10.066349163693125,-10.81194181598596,-23.10400455492053,-11.626178461959679,-9.860192650652616,-11.335362092399341,-24.06614108190058,-14.844792301030692,-14.392321579672439,-13.102924840623176,-4.917785358094492,-5.69658562586826,-23.61682608089629,-11.368625538479668,-33.656090021476196,-3.1276316035329836,-6.489696326598769,-8.69854483553479,-9.893352060856357,-4.770714481881309,-7.264391271984765,-11.94088012805256,-12.202649282984535,-13.043061184064847,-4.849032553165827,-5.275900153017327
2150.0,-4.675936837785668,-3.9252161480880816,-6.122200197528469,-7.534676207468469,-15.532951681202928,-9.876513069997998,-10.61591219867863,-22.73410979180179,-11.376947240425332,-9.641720261362318,-11.117360535979593,-23.614359150840087,-14.533989727080122,-14.108330795835162,-12.812196200763305,-4.742064714909841,-5.538198983711233,-23.131469223826954,-11.059269691465376,-32.993832966097294,-3.0319378327455686,-6.350742377266653,-8.529375987309379,-9.727123603765724,-4.669677003478306,-7.1281616786392075,-11.776246116517253,-12.018941013188558,-12.865641444898504,-4.717211782121978,-5.149370784279489
2175.0,-4.561680927353668,-3.8394018542464785,-5.969770278866805,-7.359314115032355,-15.237041475266281,-9.691485968027798,-10.424682675397,-22.373779777583877,-11.133825829337418,-9.4285332553704,-10.90470090722935,-23.173696170518095,-14.231148673857867,-13.831639719504837,-12.528473485057958,-4.570644852132506,-5.383592697749978,-22.657922534051025,-10.757491903795039,-32.347711507772296,-2.9386266203670743,-6.2150920825631815,-8.364524556219683,-9.5649897225069,-4.571153510738726,-6.995190411071284,-11.61542799960551,-11.839934204823885,-12.692612429107035,-4.588772648802167,-5.02603975360442
2200.0,-4.449915256264736,-3.755349358066802,-5.821279883989891,-7.188289912577127,-14.94894425078676,-9.51110655748817,-10.23808238320077,-22.02268691964338,-10.896612988476585,-9.22045108137043,-10.697184477538812,-22.7437875978207,-13.935995079316351,-13.561986526256062,-12.251529212496688,-4.40338364297849,-5.232636029535761,-22.19580710591926,-10.46304345152891,-31.717209495844408,-2.8476173948183767,-6.0826274292945754,-8.203847636575517,-9.40680705594871,-4.475060000774344,-6.865361266788618,-11.458283174262302,-11.665471550997887,-12.5238209837105,-4.463603967233376,-4.905795211510768
2225.0,-4.340548283404509,-3.6729836518222703,-5.676599129187041,-7.02145491116823,-14.66839619105104,-9.335221738984767,-10.055948091351738,-21.68051952770406,-10.665117962474342,-9.01730174920878,-10.494619410710975,-22.32428815833605,-13.648267512901938,-13.299119962199336,-11.981148008853227,-4.240146311391956,-5.085204150754108,-21.744764763123854,-10.175688703182132,-31.101839672678686,-2.7588335890301,-5.953235162602172,-8.047209612688782,-9.252438554951569,-4.381316677066405,-6.738562733129706,-11.304673953753616,-11.495403641940186,-12.359120761003254,-4.34160049775293,-4.788530382447249
2250.0,-4.233491602997839,-3.592231188240815,-5.535604861924398,-6.858667003076994,-14.39514649020381,-9.163686192764928,-9.878123771891994,-21.346980976900443,-10.439159956560964,-8.818921369082487,-10.29682030515663,-21.914870891784677,-13.367716493695248,-13.042798718595925,-11.717126012949775,-4.080805062657121,-4.941177815430693,-21.304457059560956,-9.895204471255841,-30.50114230446446,-2.672202434911507,-5.826806498794305,-7.894481787756661,-9.10175312582681,-4.289847732656856,-6.614687703838441,-11.15446723190038,-11.329588560030535,-12.198371834482277,-4.222662652895075,-4.674143279628587
2275.0,-4.128659731398639,-3.513019714441008,-5.398180330469546,-6.6997902948498576,-14.128956695537509,-8.996361990946689,-9.704460198773143,-21.021788937448207,-10.218567655313883,-8.625153724079478,-10.103607763759396,-21.51522627725724,-13.094103864903389,-12.792790853626615,-11.4592703332303,-3.925238744052504,-4.800443053962381,-20.87456436839376,-9.621379417898632,-29.914683935779664,-2.5876547742374854,-5.7032368545043814,-7.745542042947272,-8.954625297562753,-4.200581150504174,-6.493633211720825,-11.007534161371,-11.167891507267118,-12.041440340363213,-4.106696228351659,-4.562536438880842
2300.0,-4.025969902369574,-3.43527810586795,-5.26421488070884,-6.5446947645392815,-13.869600103969248,-8.833118240675143,-9.53481457335194,-20.704674665829273,-10.003178781122882,-8.435849873512272,-9.91480798929359,-21.12506143216372,-12.82720222039273,-12.548873257702358,-11.207398550804049,-3.773332533250489,-4.662890887301729,-20.454785052582995,-9.354013510557454,-29.34205625846693,-2.5051248846970235,-5.582425590925392,-7.600274524374853,-8.810934910994291,-4.113448519689807,-6.375300176152355,-10.863749844954933,-11.010184462691077,-11.888198142721343,-3.993612157088148,-4.453616670038813
2325.0,-3.9253418702125695,-3.3589362002290746,-5.133603678098781,-6.393255941265608,-13.61686120860241,-8.673830755865588,-9.369050174255285,-20.39538235283619,-9.792839689371302,-8.250867784715975,-9.730252403460078,-20.744099379323053,-12.566794379322353,-12.310831159017056,-10.961338265450532,-3.6249776523630204,-4.52841705976711,-20.044834710731287,-9.092917523833437,-28.782875086184895,-2.424550319956009,-5.464275771980112,-7.458569355853435,-8.670566828252428,-4.028384866276699,-6.259593164312713,-10.722993038834536,-10.856345867501593,-11.738522520468301,-3.8833262848613943,-4.3472948245636225
2350.0,-3.8266977201656696,-3.2839246314301986,-5.006247452867578,-6.245354605435148,-13.37053519161894,-8.518381755394008,-9.207036029789132,-20.093668524220178,-9.587404997588642,-8.07007199118067,-9.549777287771406,-20.372078377098088,-12.312672905275587,-12.078457666324901,-10.720926681376458,-3.480071105713429,-4.396921789081462,-19.644445492612075,-8.837912584081716,-28.23677942673423,-2.3458717626841703,-5.348693935382862,-7.320322375496199,-8.53341066097055,-3.945328497721361,-6.146420165118313,-10.585145866954788,-10.706260335784545,-11.59229587452378,-3.7757591655358316,-4.243485578163188
2375.0,-3.7299616855305735,-3.2101746635113324,-4.882052266743653,-6.100876508081905,-13.130427460068272,-8.36665958577564,-9.048646611219619,-19.799301490045888,-9.386737246062099,-7.893333275068176,-9.373223444666298,-20.00875130791181,-12.06463966659188,-11.85155334618054,-10.486010229787146,-3.338515439577537,-4.268309532361279,-19.253365479231867,-8.588829753588318,-27.70343064492891,-2.2690328895858163,-5.235589875637538,-7.185434894393127,-8.399360515854934,-3.864220859836198,-6.035692374912134,-10.450093545667889,-10.559818388958224,-11.449405453684655,-3.67083587473044,-4.142107227301096
2400.0,-3.6350599710402483,-3.1376180245825855,-4.760929299631093,-5.959712107928572,-12.896353221404441,-8.21855846653686,-8.89376154539538,-19.512060839182954,-9.190706587604067,-7.720528372326237,-9.200435877369797,-19.65388512086965,-11.822505434876875,-11.62992583211105,-10.256444225578846,-3.2002185222831767,-4.142488766884113,-18.87135812270187,-8.345509651420455,-27.182511709383007,-2.193980247553657,-5.124876438096351,-7.053813475746412,-8.268314756342704,-3.7850064053812558,-5.927323994048143,-10.317724117898324,-10.416916212195364,-11.30974309781706,-3.5684858404513533,-4.043081498572731
2425.0,-3.5419205820162665,-3.066186740760101,-4.642794654783617,-5.821756324878905,-12.668137095884981,-8.073978256633389,-8.742265345305881,-19.231736975658297,-8.999190504363273,-7.551539698761076,-9.031263487137865,-19.307260324566773,-11.586089518918884,-11.413389463398994,-10.032092555682134,-3.06509334319124,-4.019371784560259,-18.498201741587696,-8.107802108288318,-26.673726517134334,-2.1206631401382667,-5.0164693232762305,-6.925369732977666,-8.14017577917662,-3.707632473440997,-5.821232033578711,-10.187928196135928,-10.277455431225162,-11.173204997110723,-3.468642689476916,-3.94633337001275
2450.0,-3.4504731589022706,-2.995812970101923,-4.5275691811471575,-5.686908308759306,-12.445612763181481,-7.932824240404065,-8.594047157287301,-18.95813069386442,-8.812073549740504,-7.386255095563895,-8.865558786637298,-18.968670526480945,-11.355219431468042,-11.201764951346426,-9.81282739678811,-2.9330578292022667,-3.898874499122453,-18.133689067759786,-7.875565852974196,-26.176799290523324,-2.0490335235921675,-4.910286900695984,-6.800020145443404,-8.014849804822935,-3.6320491788118536,-5.71733613131962,-10.060598713622543,-10.14134290805189,-11.039691466240715,-3.371244108362623,-3.8517909034741438
2475.0,-3.3606488167934865,-2.926428836543899,-4.415178311649092,-5.555071222223363,-12.228622640766766,-7.79500693167038,-8.449000523690204,-18.691052789859047,-8.629247113626258,-7.224567592908232,-8.703177628312552,-18.63792201564196,-11.129730586539319,-10.994879071061858,-9.598528960373109,-2.8040346775426137,-3.780916265127575,-17.777626841089315,-7.648668228083504,-25.691474041197605,-1.9790459118068633,-4.806250031556498,-6.677685890504577,-7.8922466807441864,-3.5582093106878534,-5.6155583766246835,-9.93563068314814,-10.00849055424274,-10.909106732372617,-3.2762317180257474,-3.7593850872896812
2500.0,-3.2723799896125563,-2.857966263835614,-4.305551916310678,-5.426152036820784,-12.01701759183993,-7.660441894705313,-8.307023159920574,-18.430323706217436,-8.450609209321637,-7.0663751903470615,-8.543978946684197,-18.3148333855358,-10.909466025090449,-10.792564376971095,-9.389085263104617,-2.6779512036841773,-3.665419707937088,-17.429835448627788,-7.426984933052163,-25.21751409652438,-1.910657289517114,-4.704281899641578,-6.558292690798761,-7.772279696620577,-3.486068239989995,-5.51582314325688,-9.812920962920161,-9.878815160548212,-10.781358736035275,-3.183550960952758,-3.669049688489595
2525.0,-3.1856002786095967,-2.7903568094761995,-4.198624169148354,-5.300061341311211,-11.81065666072813,-7.529049580895265,-8.168016744850856,-18.17577320809768,-8.276064280633257,-6.911580652838835,-8.38782451360699,-17.99923519444233,-10.694276167095298,-10.594658940394957,-9.18439192086354,-2.554739203343103,-3.552310563909476,-17.09014860517571,-7.210399792509903,-24.754701684067996,-1.843827033195431,-4.604307849865737,-6.441770675653389,-7.6548654106837075,-3.4155838347364913,-5.418056929790937,-9.692368029012071,-9.752238241715393,-10.656358943961635,-3.0931510001491618,-3.5807211139076727
2550.0,-3.1002443048899067,-2.723531498650425,-4.094333427911112,-5.176713161376407,-11.609406833866457,-7.400755180011936,-8.031886723677447,-17.927240088364684,-8.105523027751918,-6.760091321324219,-8.234578705592659,-17.690969660625875,-10.484018588189741,-10.401006107668012,-8.98435196475634,-2.4343348275856003,-3.441517530098415,-16.758413072388354,-6.998804548248038,-24.30283757013063,-1.7785168391059158,-4.506255233941133,-6.3280542556633455,-7.53992348639414,-3.346716382898343,-5.322188207027011,-9.573871753936112,-9.628685895444075,-10.53402217306898,-3.004984629020261,-3.4943382795602362
2575.0,-3.0162475656952608,-2.6574206581642947,-3.9926221257760592,-5.056024789950104,-11.413142824606467,-7.275488485095988,-7.8985421223732235,-17.684571899787347,-7.9389022506334515,-6.611818936859446,-8.0841082823718,-17.389890390000087,-10.278557819209974,-10.211454277391933,-8.788875677618092,-2.316678470145278,-3.332972122805493,-16.43448841379071,-6.792098673177844,-23.861740748668428,-1.7146906580277796,-4.410053262676336,-6.21708200953196,-7.427376538752985,-3.279428522229189,-5.228147271936283,-9.457333190921112,-9.50808867451993,-10.414266424816617,-2.9190081914353154,-3.4098424877308147
2600.0,-2.9335462941866393,-2.5919537503813066,-3.8934366741910984,-4.937916627445367,-11.22174688023724,-7.153183770030381,-7.767895372949191,-17.44762471247496,-7.776124708698099,-6.466679477388517,-7.936282175933892,-17.095862134070043,-10.077765167071354,-10.025856695525109,-8.597880449621446,-2.2017146661248157,-3.2266085443867114,-16.118246783272937,-6.590189205788973,-23.43124817717486,-1.6523146361965302,-4.315632864458094,-6.1087965823438255,-7.317149989593633,-3.213685176595993,-5.135866107695314,-9.342654363508332,-9.390381471229686,-10.297012729234934,-2.835181511284588,-3.3271773112372616
2625.0,-2.8520773224943903,-2.527059207158008,-3.796727376117065,-4.822312031214374,-11.035108609728944,-7.033779678952866,-7.6398621487995095,-17.216262894861032,-7.617118995756766,-6.324593006307451,-7.790971289341788,-16.80876057612566,-9.881518555557207,-9.844071267110845,-8.411290651714646,-2.0893920013192124,-3.122363557758192,-15.809572744828102,-6.392990603733568,-23.011214556391064,-1.5913570620460185,-4.222926549500865,-6.0031445945028175,-7.2091719312496805,-3.1494534983752827,-5.045278249400725,-9.22973806010768,-9.275503413235768,-10.1821849979767,-2.753467830892643,-3.2462884843981326
2650.0,-2.7717779478206004,-2.4626642637801726,-3.702448348977173,-4.70913717362622,-10.853124830819839,-6.9172191267209735,-7.514361209459865,-16.990358916669983,-7.461819429153181,-6.185483532036965,-7.648048304671063,-16.528472143809875,-9.689702384692472,-9.665960383535715,-8.22903752570572,-1.9796630314543473,-3.020176368088319,-15.508363121457947,-6.200424615263422,-22.601512150931995,-1.531788318365261,-4.131868279480888,-5.900076560624812,-7.103372998040389,-3.086702816511374,-4.956318655086696,-9.118487633184968,-9.163397770147649,-10.069709885789319,-2.6738337576984157,-3.1671238002518662
2675.0,-2.692585801393563,-2.398694792898557,-3.6105574566745773,-4.598320908194281,-10.675699435172778,-6.803449209702078,-7.39131425415836,-16.769793172419675,-7.310165952188892,-6.049278877879936,-7.507387499473287,-16.25489384633,-9.502207407479759,-9.491390764294941,-8.051059089901049,-1.8724842106888677,-2.919988511202416,-15.21452687133305,-6.012420167345536,-22.20203064814384,-1.4735808395137993,-4.042393342200048,-5.799546817730029,-6.999686245057933,-3.0254045898637716,-4.868923581695469,-9.008806802773826,-9.054011870085239,-9.959516659851998,-2.5962492186578823,-3.089633013615859
2700.0,-2.614438720089715,-2.335075138464786,-3.52101625008588,-4.489794643227255,-10.502743270421389,-6.692421126215461,-7.270645783585593,-16.55445382412124,-7.162104048965765,-5.915910561492749,-7.368864571206655,-15.987933134706283,-9.318930622863814,-9.320233312316233,-7.877300059285979,-1.7678158287751313,-2.8217437482613006,-14.927984989432444,-5.828913269367362,-21.812677052701673,-1.4167090733654004,-3.95443823095142,-5.701513462127512,-6.898047033778651,-2.9655323654989454,-4.7830304656781415,-8.900599464030503,-8.94729702558283,-9.851537076464107,-2.520687421865028,-3.013767749603443
2725.0,-2.537274620551745,-2.2717279496673553,-3.433789915482298,-4.383492222516768,-10.33417403801325,-6.584090106002373,-7.15228296935184,-16.34423666193487,-7.017584670845069,-5.785313683349862,-7.232356469119104,-15.727507783571237,-9.139775183875516,-9.152362981964574,-7.70771177931006,-1.6656219563195527,-2.7253879663071676,-14.648670433019328,-5.649846931423432,-21.433375614641925,-1.36114944767432,-3.86794052828247,-5.605938294429264,-6.798392924055863,-2.907061741606619,-4.698577807926002,-8.793769498569658,-8.843208468229008,-9.745705264608308,-2.447124824924296,-2.939481417244974
2750.0,-2.461031375643845,-2.208574014867387,-3.348847230370428,-4.279349812609977,-10.169916205837609,-6.47841534814641,-7.0361555306388555,-16.139044981632722,-6.876564173780807,-5.657426823625833,-7.097741233106026,-15.47354579314207,-8.964650319982791,-8.987658658914174,-7.542252172408588,-1.5658703976242057,-2.630869084300589,-14.37652806943097,-5.475171096250008,-21.06406778869409,-1.3068803405809506,-3.7828387938741113,-5.512786772173296,-6.700663572084475,-2.8499703347442256,-4.615505062754596,-8.688220589337996,-8.741705291482427,-9.641957615946302,-2.375541109641791,-2.866729127884987
2775.0,-2.385646693096981,-2.145532095534707,-3.2661605262810167,-4.177305796248508,-10.009900934698074,-6.375359966907537,-6.922195617589063,-15.938789477801434,-6.7390042658380995,-5.532191946960918,-6.964897839099917,-15.2259853100873,-8.793471272746116,-8.826003051133137,-7.380885696453508,-1.4685326506280776,-2.5381369642990728,-14.111514644768011,-5.304842583939988,-20.704712222926513,-1.253882054993646,-3.6990724562741755,-5.422027969571336,-6.604800633956753,-2.7942377511349585,-4.533752530683688,-8.58385603880169,-8.642750401144788,-9.540232680838862,-2.30591916263374,-2.795467618051434
2800.0,-2.3110579962070465,-2.082518760183608,-3.1857056580684597,-4.077300671585018,-9.85406601775873,-6.274890944972582,-6.81033770100819,-15.7433881517953,-6.6048719642573905,-5.409554314614517,-6.833706050580458,-14.984774566101242,-8.626159243941322,-8.667282590280205,-7.223583314386,-1.3735838735018924,-2.44714332745317,-13.853598772172818,-5.138825048634699,-20.35528477486813,-1.202136796603268,-3.6165817082429075,-5.333634543933539,-6.510747674457028,-2.7398455617644224,-4.453261254773748,-8.480578590238121,-8.546310473008955,-9.440471070009849,-2.2382450614798914,-2.7256551765148065
2825.0,-2.2372023064588777,-2.019448218308771,-3.107461979314575,-3.979276956816489,-9.702355832153826,-6.176979093659277,-6.7005184679869485,-15.552766233519542,-6.474139561470369,-5.289462403546266,-6.704046275823481,-14.749871833083878,-8.462641355372098,-8.51138734286352,-7.070322474335022,-1.281002857481464,-2.3578416745190705,-13.602760938477255,-4.977088946444819,-20.015778553394608,-1.1516286553033777,-3.535307405484893,-5.247582708352551,-6.418450080767074,-2.6867772810383617,-4.373972920296886,-8.37829025193795,-8.452355917233417,-9.342615361500487,-2.172508066075553,-2.657251575274832
2850.0,-2.164016127957897,-1.956232154321225,-3.031412323458762,-3.8831790998986446,-9.554721302008076,-6.081599019644448,-6.59267672307586,-15.366856116189387,-6.346784599515017,-5.171867831996453,-6.575799430533585,-14.521245393900752,-8.302850619648611,-8.358210930556142,-6.921087099575539,-1.1907720055541102,-2.270187210607922,-13.358993528087233,-4.819611513906137,-19.68620398479,-1.1023435898056324,-3.455190968558128,-5.16385221025985,-6.327854980777835,-2.6350183487821344,-4.295829757536523,-8.276892124137985,-8.360860849028745,-9.24661001258762,-2.108700614860721,-2.5902180042314153
2875.0,-2.0914353335592386,-1.8927795614842096,-2.9575429903037094,-3.788953393029756,-9.411119872168332,-5.988729097816648,-6.4867532946725435,-15.18559730327019,-6.222789852336698,-5.056725291168154,-6.448846805530454,-14.298873527770656,-8.146725921260765,-8.207650459106924,-6.775867587725365,-1.1028773166395618,-2.184136773911528,-13.12230086305038,-4.666376756324341,-19.366588901505583,-1.054269415254621,-3.376174287765481,-5.082426315494442,-6.23891116572451,-2.5845561153763175,-4.218774447523286,-8.176284228516304,-8.271803065267347,-9.152401276359319,-2.046818325627317,-2.5245170093131595
2900.0,-2.019395052592004,-1.828996575849051,-2.885843737569313,-3.6965478916132,-9.271515491994466,-5.898351449881069,-6.382690946304378,-15.008936366858094,-6.102143315496674,-4.943992482640341,-6.323069939181582,-14.082744509393185,-7.994212007319765,-8.059606455322962,-6.6346608186207865,-1.0173083749316496,-2.099648768162539,-12.892699258325845,-4.517375445407779,-19.056978652239575,-1.0073957936595528,-3.298199630847067,-5.003291797548059,-6.1515690168810195,-2.535379829838259,-4.142750030528958,-8.076365340094199,-8.185164026657304,-9.059937122665016,-1.9868600006259507,-2.4601124338527467
2925.0,-1.9478295600832125,-1.7647863101911068,-2.8163077771906226,-3.605912337428619,-9.135878608603278,-5.8104519283703855,-6.280434292511548,-14.83682691681267,-5.984838202842858,-4.833630061166947,-6.1983504942952425,-13.87285662098987,-7.845259487385271,-7.9139828116364885,-6.497470170349694,-0.9340583440898917,-2.0166830986034294,-12.670217091342435,-4.372605125628215,-18.75743623205595,-0.96171422697323,-3.2212095533048664,-4.926438931675091,-6.065780436068884,-2.4874806306721347,-4.067699817152316,-7.977032821399752,-8.100928845144963,-8.969167163176024,-1.9288276357131315,-2.3969693630129587
2950.0,-1.8766721673923943,-1.7000486879455452,-2.7489317760761978,-3.516998085759819,-9.004186169000263,-5.725020105738799,-6.179929719055267,-14.66922957999933,-5.870872949728011,-4.725601582540603,-6.074570139207235,-13.669218176489407,-7.69982484183565,-7.7706867378027145,-6.364305542956567,-0.8531239659914875,-1.9352011112543743,-12.454894884994145,-4.232070128788279,-18.468042431348138,-0.9172180526601541,-3.1451468112023604,-4.8518614935764415,-5.981498779751967,-2.440851539321594,-3.993567301841291,-7.878182458757085,-8.019086276232725,-8.880042580309198,-1.8727264332973415,-2.335054071080453
2975.0,-1.8058551141741166,-1.6346802771435387,-2.6837158610620713,-3.429758036244383,-8.876421630571585,-5.642049268237816,-6.081125307194798,-14.506111989042145,-5.760251222387681,-4.619873456220816,-5.951610432812723,-13.471847557137515,-7.557870438273957,-7.629628719304486,-6.235183389365631,-0.7745055637733376,-1.8551655352840295,-12.246785403277771,-4.095781596308731,-18.18889600253226,-0.8739024416058147,-3.069954276292213,-4.779556762385225,-5.898678796503329,-2.395487456071398,-3.920296078708011,-7.779708300576146,-7.939628715921952,-8.792516059785692,-1.8185648188584558,-2.2743339714567865
3000.0,-1.7353094615904503,-1.5685741243477804,-2.620663627815188,-3.3441465672260784,-8.752574979445797,-5.561536414293771,-5.983970761794146,-14.347448780030048,-5.652981933117947,-4.516414902447501,-5.829352713311219,-13.280773257863636,-7.419364555499035,-7.490722482070204,-6.110126753100576,-0.6982070489127402,-1.7765404283005928,-12.045953758834104,-3.963757508782736,-17.92011384343388,-0.8317643982302784,-2.995574853335391,-4.709525527702665,-5.817276567646326,-2.3513851582536223,-3.8478297595007436,-7.6815024975238595,-7.862552202008002,-8.706541726609206,-1.7663544608311141,-2.21477756918789
