CAS_Number|Formula|Name|State|JANAF_Table|Links
12068-51-8|Al2MgO4|Magnesium_Aluminum_Oxide|cr|view|webbook
12068-51-8|Al2MgO4|Magnesium_Aluminum_Oxide|l|view|webbook
12068-51-8|Al2MgO4|Magnesium_Aluminum_Oxide|cr,l|view|webbook
12007-25-9|B2Mg|Magnesium_Boride|cr|view|webbook
12007-74-8|B4Mg|Magnesium_Boride|cr|view|webbook
14519-11-0|BrMg|Magnesium_Bromide|g|view|webbook
7789-48-2|Br2Mg|Magnesium_Bromide|cr|view|webbook
7789-48-2|Br2Mg|Magnesium_Bromide|l|view|webbook
7789-48-2|Br2Mg|Magnesium_Bromide|cr,l|view|webbook
7789-48-2|Br2Mg|Magnesium_Bromide|g|view|webbook
74966-77-1|Br2Mg+|Magnesium_Bromide,_Ion|g|view|webbook
58749-16-9|Br4Mg2|Magnesium_Bromide|g|view|webbook
546-93-0|CMgO3|Magnesium_Carbonate|cr|view|webbook
12122-46-2|C2Mg|Magnesium_Carbide|cr|view|webbook
12151-74-5|C3Mg2|Magnesium_Carbide|cr|view|webbook
60175-01-1|ClFMg|Magnesium_Chloride_Fluoride|g|view|webbook
14989-29-8|ClMg|Magnesium_Chloride|g|view|webbook
32195-53-2|ClMg+|Magnesium_Chloride,_Ion|g|view|webbook
7786-30-3|Cl2Mg|Magnesium_Chloride|cr|view|webbook
7786-30-3|Cl2Mg|Magnesium_Chloride|l|view|webbook
7786-30-3|Cl2Mg|Magnesium_Chloride|cr,l|view|webbook
7786-30-3|Cl2Mg|Magnesium_Chloride|g|view|webbook
42565-93-5|Cl4Mg2|Magnesium_Chloride|g|view|webbook
14953-28-7|FMg|Magnesium_Fluoride|g|view|webbook
21308-25-8|FMg+|Magnesium_Fluoride,_Ion|g|view|webbook
7783-40-6|F2Mg|Magnesium_Fluoride|cr|view|webbook
7783-40-6|F2Mg|Magnesium_Fluoride|l|view|webbook
7783-40-6|F2Mg|Magnesium_Fluoride|cr,l|view|webbook
7783-40-6|F2Mg|Magnesium_Fluoride|g|view|webbook
68193-66-8|F2Mg+|Magnesium_Fluoride,_Ion|g|view|webbook
58790-41-3|F4Mg2|Magnesium_Fluoride|g|view|webbook
14332-53-7|HMg|Magnesium_Hydride|g|view|webbook
12141-11-6|HMgO|Magnesium_Hydroxide|g|view|webbook
60172-61-4|HMgO+|Magnesium_Hydroxide,_Ion|g|view|webbook
7693-27-8|H2Mg|Magnesium_Hydride|cr|view|webbook
1309-42-8|H2MgO2|Magnesium_Hydroxide|cr|view|webbook
1309-42-8|H2MgO2|Magnesium_Hydroxide|g|view|webbook
14332-62-8|IMg|Magnesium_Iodide|g|view|webbook
10377-58-9|I2Mg|Magnesium_Iodide|cr|view|webbook
10377-58-9|I2Mg|Magnesium_Iodide|l|view|webbook
10377-58-9|I2Mg|Magnesium_Iodide|cr,l|view|webbook
10377-58-9|I2Mg|Magnesium_Iodide|g|view|webbook
7439-95-4|Mg|Magnesium|ref|view|webbook
7439-95-4|Mg|Magnesium|cr|view|webbook
7439-95-4|Mg|Magnesium|l|view|webbook
7439-95-4|Mg|Magnesium|cr,l|view|webbook
7439-95-4|Mg|Magnesium|g|view|webbook
14581-92-1|Mg+|Magnesium,_Ion|g|view|webbook
60195-15-5|MgN|Magnesium_Nitride|g|view|webbook
1309-48-4|MgO|Magnesium_Oxide|cr|view|webbook
1309-48-4|MgO|Magnesium_Oxide|l|view|webbook
1309-48-4|MgO|Magnesium_Oxide|cr,l|view|webbook
1309-48-4|MgO|Magnesium_Oxide|g|view|webbook
13776-74-4|MgO3Si|Magnesium_Silicate|cr|view|webbook
13776-74-4|MgO3Si|Magnesium_Silicate|l|view|webbook
13776-74-4|MgO3Si|Magnesium_Silicate|cr,l|view|webbook
12032-30-3|MgO3Ti|Magnesium_Titanium_Oxide|cr|view|webbook
12032-30-3|MgO3Ti|Magnesium_Titanium_Oxide|l|view|webbook
12032-30-3|MgO3Ti|Magnesium_Titanium_Oxide|cr,l|view|webbook
7487-88-9|MgO4S|Magnesium_Sulfate|cr|view|webbook
7487-88-9|MgO4S|Magnesium_Sulfate|l|view|webbook
7487-88-9|MgO4S|Magnesium_Sulfate|cr,l|view|webbook
13573-11-0|MgO4W|Magnesium_Tungsten_Oxide|cr|view|webbook
12032-35-8|MgO5Ti2|Magnesium_Titanium_Oxide|cr|view|webbook
12032-35-8|MgO5Ti2|Magnesium_Titanium_Oxide|l|view|webbook
12032-35-8|MgO5Ti2|Magnesium_Titanium_Oxide|cr,l|view|webbook
12032-36-9|MgS|Magnesium_Sulfide|cr|view|webbook
12032-36-9|MgS|Magnesium_Sulfide|g|view|webbook
29904-79-8|Mg2|Magnesium|g|view|webbook
10034-94-3|Mg2O4Si|Magnesium_Silicate|cr|view|webbook
10034-94-3|Mg2O4Si|Magnesium_Silicate|l|view|webbook
10034-94-3|Mg2O4Si|Magnesium_Silicate|cr,l|view|webbook
12032-52-9|Mg2O4Ti|Magnesium_Titanium_Oxide|cr|view|webbook
12032-52-9|Mg2O4Ti|Magnesium_Titanium_Oxide|l|view|webbook
12032-52-9|Mg2O4Ti|Magnesium_Titanium_Oxide|cr,l|view|webbook
22831-39-6|Mg2Si|Magnesium_Silicide|cr|view|webbook
22831-39-6|Mg2Si|Magnesium_Silicide|l|view|webbook
22831-39-6|Mg2Si|Magnesium_Silicide|cr,l|view|webbook
12057-71-5|Mg3N2|Magnesium_Nitride|cr|view|webbook
7757-87-1|Mg3O8P2|Magnesium_Phosphate|cr|view|webbook
7757-87-1|Mg3O8P2|Magnesium_Phosphate|l|view|webbook
7757-87-1|Mg3O8P2|Magnesium_Phosphate|cr,l|view|webbook


7789-46-0|Br2Fe|Iron_Bromide|cr|view|webbook
7789-46-0|Br2Fe|Iron_Bromide|l|view|webbook
7789-46-0|Br2Fe|Iron_Bromide|cr,l|view|webbook
7789-46-0|Br2Fe|Iron_Bromide|g|view|webbook
66468-24-4|Br4Fe2|Iron_Bromide|g|view|webbook
13463-40-6|C5FeO5|Iron_Carbonyl|l|view|webbook
13463-40-6|C5FeO5|Iron_Carbonyl|g|view|webbook
27846-09-9|ClFe|Iron_Chloride|g|view|webbook
7758-94-3|Cl2Fe|Iron_Chloride|cr|view|webbook
7758-94-3|Cl2Fe|Iron_Chloride|l|view|webbook
7758-94-3|Cl2Fe|Iron_Chloride|cr,l|view|webbook
7758-94-3|Cl2Fe|Iron_Chloride|g|view|webbook
7705-08-0|Cl3Fe|Iron_Chloride|cr|view|webbook
7705-08-0|Cl3Fe|Iron_Chloride|l|view|webbook
7705-08-0|Cl3Fe|Iron_Chloride|cr,l|view|webbook
7705-08-0|Cl3Fe|Iron_Chloride|g|view|webbook
23444-30-6|Cl4Fe2|Iron_Chloride|g|view|webbook
16480-60-7|Cl6Fe2|Iron_Chloride|g|view|webbook
41428-55-1|FFe|Iron_Fluoride|g|view|webbook
7789-28-8|F2Fe|Iron_Fluoride|cr|view|webbook
7789-28-8|F2Fe|Iron_Fluoride|l|view|webbook
7789-28-8|F2Fe|Iron_Fluoride|cr,l|view|webbook
7789-28-8|F2Fe|Iron_Fluoride|g|view|webbook
7783-50-8|F3Fe|Iron_Fluoride|cr|view|webbook
7783-50-8|F3Fe|Iron_Fluoride|g|view|webbook
17125-56-3|Fe0.947O|Iron_Oxide,_Wustite|cr|view|
1310-50-5|Fe0.877S|Iron_Sulfide,_Pyrrhotite|cr|view|
7439-89-6|Fe|Iron|ref|view|webbook
7439-89-6|Fe|Iron,_Alpha-Delta|cr|view|webbook
7439-89-6|Fe|Iron,_Gamma|cr|view|webbook
7439-89-6|Fe|Iron|l|view|webbook
7439-89-6|Fe|Iron|cr,l|view|webbook
7439-89-6|Fe|Iron|g|view|webbook
14067-02-8|Fe+|Iron,_Ion|g|view|webbook
22325-61-7|Fe-|Iron,_Ion|g|view|webbook
18624-44-7|H2FeO2|Iron_Hydroxide|cr|view|webbook
18624-44-7|H2FeO2|Iron_Hydroxide|g|view|webbook
1309-33-7|H3FeO3|Iron_Hydroxide|cr|view|webbook
7783-86-0|FeI2|Iron_Iodide|cr|view|webbook
7783-86-0|FeI2|Iron_Iodide|l|view|webbook
7783-86-0|FeI2|Iron_Iodide|cr,l|view|webbook
7783-86-0|FeI2|Iron_Iodide|g|view|webbook
1345-25-1|FeO|Iron_Oxide|cr|view|webbook
1345-25-1|FeO|Iron_Oxide|l|view|webbook
1345-25-1|FeO|Iron_Oxide|cr,l|view|webbook
1345-25-1|FeO|Iron_Oxide|g|view|webbook
7720-78-7|FeO4S|Iron_Sulfate|cr|view|webbook
1317-96-0|FeS|Iron_Sulfide,_Troilite|cr|view|webbook
1317-96-0|FeS|Iron_Sulfide|l|view|webbook
1317-96-0|FeS|Iron_Sulfide,_Troilite|cr,l|view|webbook
1317-96-0|FeS|Iron_Sulfide|g|view|webbook
1317-66-4|FeS2|Iron_Sulfide,_Marcasite|cr|view|webbook
1309-36-0|FeS2|Iron_Sulfide,_Pyrite|cr|view|webbook
92785-63-2|Fe2I4|Iron_Iodide|g|view|webbook
1317-60-8|Fe2O3|Iron_Oxide,_Hematite|cr|view|webbook
10028-22-5|Fe2O12S3|Iron_Sulfate|cr|view|webbook
1309-38-2|Fe3O4|Iron_Oxide,_Magnetite|cr|view|webbook


12183-80-1|Al2O5Si|Aluminum_Silicate,_Andalusite|cr|view|webbook
1302-76-7|Al2O5Si|Aluminum_Silicate,_Kyanite|cr|view|webbook
12141-46-7|Al2O5Si|Aluminum_Silicate,_Sillimanite|cr|view|webbook
1302-93-8|Al6O13Si2|Aluminum_Silicate,_Mullite|cr|view|webbook
15191-85-2|Be2O4Si|Beryllium_Silicate|cr|view|webbook
13465-73-1|H3BrSi|Bromosilane|g|view|webbook
14791-57-2|BrSi|Bromosilylidyne|g|view|webbook
13768-94-0|H2Br2Si|Dibromosilane|g|view|webbook
14877-32-8|Br2Si|Dibromosilylene|g|view|webbook
7789-57-3|HBr3Si|Tribromosilane|g|view|webbook
13842-48-3|Br3Si|Tribromosilyl|g|view|webbook
7789-66-4|Br4Si|Tetrabromosilane|l|view|webbook
7789-66-4|Br4Si|Tetrabromosilane|g|view|webbook
75-79-6|CH3Cl3Si|Trichloromethylsilane|g|view|webbook
373-74-0|CH3F3Si|Trifluoromethylsilane|g|view|webbook
409-21-2|CSi|Silicon_Carbide,_Alpha|cr|view|webbook
409-21-2|CSi|Silicon_Carbide,_Beta|cr|view|webbook
409-21-2|CSi|Silicon_Carbide|g|view|webbook
12070-04-1|CSi2|Silicon_Carbide|g|view|webbook
12071-27-1|C2Si|Silicon_Carbide|g|view|webbook
75-76-3|C4H12Si|Tetramethylsilane|g|view|webbook
14049-36-6|ClF3Si|Chlorotrifluorosilane|g|view|webbook
13465-78-6|H3ClSi|Chlorosilane|g|view|webbook
13966-57-9|ClSi|Clorosilylidyne|g|view|webbook
4109-96-0|H2Cl2Si|Dichlorosilane|g|view|webbook
13569-32-9|Cl2Si|Dichlorosilylene|g|view|webbook
14965-52-7|Cl3FSi|Trichlorofluorosilane|g|view|webbook
10025-78-2|HCl3Si|Trichlorosilane|g|view|webbook
19165-34-5|Cl3Si|Trichlorosilyl|g|view|webbook
10026-04-7|Cl4Si|Tetrachlorosilane|g|view|webbook
13537-33-2|H3FSi|Fluorosilane|g|view|webbook
11128-24-8|FSi|Fluorosilylidyne|g|view|webbook
13824-36-7|H2F2Si|Difluorosilane|g|view|webbook
14041-22-6|F2OSi|Difluorooxosilane|g|view|webbook
13966-66-0|F2Si|Difluorosilylene|g|view|webbook
13465-71-9|HF3Si|Trifluorosilane|g|view|webbook
14835-14-4|F3Si|Trifluorosilyl|g|view|webbook
7783-61-1|F4Si|Tetrafluorosilane|g|view|webbook
13465-72-0|HI3Si|Triiodosilane|g|view|webbook
13774-94-2|HSi|Silylidyne|g|view|webbook
31241-66-4|HSi+|Silylidyne,_Ion|g|view|webbook
13760-02-6|H2I2Si|Diiodosilane|g|view|webbook
13598-42-0|H3ISi|Iodosilane|g|view|webbook
7803-62-5|H4Si|Silane|g|view|webbook
13841-19-5|ISi|Iodosilylidyne|g|view|webbook
13465-83-3|I2Si|Diiodosilylene|g|view|webbook
74912-20-2|I3Si|Triiodosilyl|g|view|webbook
13465-84-4|I4Si|Tetraiodosilane|cr|view|webbook
13465-84-4|I4Si|Tetraiodosilane|l|view|webbook
13465-84-4|I4Si|Tetraiodosilane|cr,l|view|webbook
13465-84-4|I4Si|Tetraiodosilane|g|view|webbook
10006-28-7|K2O3Si|Potassium_Silicate|cr|view|webbook
10006-28-7|K2O3Si|Potassium_Silicate|l|view|webbook
10006-28-7|K2O3Si|Potassium_Silicate|cr,l|view|webbook
10102-24-6|Li2O3Si|Lithium_Silicate|cr|view|webbook
10102-24-6|Li2O3Si|Lithium_Silicate|l|view|webbook
10102-24-6|Li2O3Si|Lithium_Silicate|cr,l|view|webbook
13568-46-2|Li2O5Si2|Lithium_Silicate|cr|view|webbook
13568-46-2|Li2O5Si2|Lithium_Silicate|l|view|webbook
13568-46-2|Li2O5Si2|Lithium_Silicate|cr,l|view|webbook
13776-74-4|MgO3Si|Magnesium_Silicate|cr|view|webbook
13776-74-4|MgO3Si|Magnesium_Silicate|l|view|webbook
13776-74-4|MgO3Si|Magnesium_Silicate|cr,l|view|webbook
10034-94-3|Mg2O4Si|Magnesium_Silicate|cr|view|webbook
10034-94-3|Mg2O4Si|Magnesium_Silicate|l|view|webbook
10034-94-3|Mg2O4Si|Magnesium_Silicate|cr,l|view|webbook
22831-39-6|Mg2Si|Magnesium_Silicide|cr|view|webbook
22831-39-6|Mg2Si|Magnesium_Silicide|l|view|webbook
22831-39-6|Mg2Si|Magnesium_Silicide|cr,l|view|webbook
12033-60-2|NSi|Silicon_Nitride|g|view|webbook
12293-67-3|NSi2|Silicon_Nitride|g|view|webbook
12033-89-5|N4Si3|Silicon_Nitride,_Alpha|cr|view|webbook
6834-92-0|Na2O3Si|Sodium_Silicate|cr|view|webbook
6834-92-0|Na2O3Si|Sodium_Silicate|l|view|webbook
6834-92-0|Na2O3Si|Sodium_Silicate|cr,l|view|webbook
13870-28-5|Na2O5Si2|Sodium_Silicate|cr|view|webbook
13870-28-5|Na2O5Si2|Sodium_Silicate|l|view|webbook
13870-28-5|Na2O5Si2|Sodium_Silicate|cr,l|view|webbook
10097-28-6|OSi|Silicon_Oxide|g|view|webbook
99493-55-7|O2Si|Silicon_Oxide,_Cristobalite,_High|cr|view|webbook
14464-46-1|O2Si|Silicon_Oxide,_Cristobalite,_Low|cr|view|webbook
14808-60-7|O2Si|Silicon_Oxide,_Quartz|cr|view|webbook
7631-86-9|O2Si|Silicon_Oxide|l|view|webbook
7631-86-9|O2Si|Silicon_Oxide|cr,l|view|webbook
7631-86-9|O2Si|Silicon_Oxide|g|view|webbook
10099-76-0|O3PbSi|Lead_Silicate|cr|view|webbook
13566-17-1|O4Pb2Si|Lead_Silicate|cr|view|webbook
10101-52-7|O4SiZr|Zirconium_Silicate|cr|view|webbook
12504-41-5|SSi|Silicon_Sulfide|g|view|webbook
13759-10-9|S2Si|Silicon_Sulfide|cr|view|webbook
13759-10-9|S2Si|Silicon_Sulfide|l|view|webbook
13759-10-9|S2Si|Silicon_Sulfide|cr,l|view|webbook
7440-21-3|Si|Silicon|ref|view|webbook
7440-21-3|Si|Silicon|cr|view|webbook
7440-21-3|Si|Silicon|l|view|webbook
7440-21-3|Si|Silicon|cr,l|view|webbook
7440-21-3|Si|Silicon|g|view|webbook
14067-07-3|Si+|Silicon,_Ion|g|view|webbook
14337-02-1|Si-|Silicon,_Ion|g|view|webbook
12597-35-2|Si2|Silicon|g|view|webbook
12597-37-4|Si3|Silicon|g|view|webbook
