;O(g);O2(g);Mg(g);MgO(g);Mg2(g);Ca(g);CaO(g);Ca2(g);Al(g);AlO(g);AlO2(g);Al2(g);Al2O(g);Al2O2(g);Si(g);SiO(g);SiO2(g);Si2(g);Si2O2(g);Si3(g);Na(g);NaO(g);Na2(g);Na2O(g);K(g);KO(g);KO2(g);K2(g);K2O(g);Fe(g);FeO(g)
1566;-12.371911438009894;-14.698970004336013;-7.072222022397748;-13.202886112930297;-17.20733440043781;-11.552104787124229;-16.46970355575352;-25.846292569293368;-16.93651508791109;-18.21362873418413;-23.731222545893022;-33.242693333694255;-23.757925116027433;-26.49606597014115;-14.179945126591695;-6.471316696400083;-10.701235042019974;-22.819744441567707;-13.161178996420967;-30.42361975462143;-6.725559516909762;-15.415708164303771;-15.228256563122798;-20.307828726416147;-6.863079582112629;-14.441994687080882;-23.985964208588403;-15.858889046540073;-20.474296465384448;-8.293411898858423;-12.565237187549675
1640;-11.415956226564413;-13.552841968657777;-6.538642479264047;-12.210247230502782;-16.170941467628815;-10.84970188988092;-15.396236934036322;-24.473309183510292;-16.099344774700366;-17.19900184071735;-22.361672922631293;-31.81730764512121;-22.715274925547003;-25.248396142902514;-13.321399799805679;-5.873480340713319;-9.856577528314764;-21.60930203180969;-12.193573865375587;-28.95845965491572;-6.393369471698027;-14.513032405240262;-14.67693316692066;-19.435904869514843;-6.506538183916814;-13.556017462305716;-22.608727753751364;-15.232741612160654;-19.547243943439813;-7.901480412280711;-11.856141617533845
1688;-10.820956094482884;-12.823908740944315;-6.240252945260531;-11.615441650231805;-15.593651287228173;-10.449454542755696;-14.752960926661745;-23.69308975047085;-15.627027385720226;-16.600102760239036;-21.53004760244783;-31.022278779885305;-22.131580279333853;-24.52177057341151;-12.84527222004785;-5.534778710589884;-9.349427668424957;-20.96181440081216;-11.65296853873283;-28.198075927664124;-6.204405394043623;-13.961116591612667;-14.367183224110812;-18.913239723719187;-6.302906580402877;-13.014239994064349;-21.75166942840789;-14.87837727130374;-18.991676407655124;-7.687288874039402;-11.431655083668645
1753;-10.159901369862563;-12.086186147616282;-5.772958237709153;-10.86488481602101;-14.684966094327217;-9.852805125632951;-13.941125698381859;-22.526892960560478;-14.89172142382822;-15.797091679814068;-20.525852468864525;-29.740952693782077;-21.21182463339015;-23.513965135137152;-12.057817658038346;-5.014483716238729;-8.708251756502928;-19.772888742466435;-10.785166078541378;-26.681660328602554;-5.919900055329075;-13.309642022555002;-13.884737432134317;-18.253485067507395;-5.999803970949416;-12.375717507336983;-20.80655141907774;-14.339898658433272;-18.290552362126483;-7.325448447914096;-10.896478383949136
1778;-9.8961325595985;-11.772113295386323;-5.62573583151448;-10.591709734947209;-14.400353483647363;-9.658256231686773;-13.64559619610743;-22.148129069819372;-14.657444581069191;-15.515680365931491;-20.14890883578821;-29.34144271476769;-20.922324235666224;-23.170028637132763;-11.81541105065962;-4.847337391171597;-8.474515959547414;-19.42898538469916;-10.513813797431636;-26.263233371172756;-5.827579408236311;-13.060971632904597;-13.731767592319828;-18.01329022091767;-5.900688659702595;-12.131809231470848;-20.42832957533441;-14.16661352081589;-18.035343581924625;-7.2163749434768825;-10.701825403109499
1862;-9.037549884064779;-10.73048705578208;-5.1880824400007235;-9.730960877639134;-13.55762180371707;-9.070541508157861;-12.7141292163638;-21.007123744098593;-13.95505177328797;-14.639881947750132;-18.948107665636986;-28.15478397400435;-20.061056644307588;-22.112819210545258;-11.098338046706878;-4.344494568833811;-7.7365916202483245;-18.44048827987446;-9.706654828111569;-25.088404632075438;-5.549048954681063;-12.26380405718809;-13.27516407706953;-17.256192488889777;-5.600654961396826;-11.349833764922415;-19.197371671654018;-13.646295544304765;-17.23109817989888;-6.898053793624317;-10.088965757340581
