﻿ModelName;Source;Material;SiO2;TiO2;Al2O3;FeO;MnO;MgO;CaO;Na2O;K2O
ilm;DeMaria;Ilmenite basalt;42.33;4.54;9.12;22.06;0.26;11.58;9.37;0.29;0.07
bim;Markova;Basaltic impact melt;45.5;0.3;28.7;4.3;0;4.4;16.4;0.4;0.1
tek;Gooding Meunow;Tektite T1;70.74066667;0.790666667;13.868;5.078626667;0.094;2.595333333;3.089333333;1.377333333;2.397333333