ModelName;Material;Source;SiO2;MgO;Al2O3;TiO2;Fe2O3;FeO;CaO;Na2O;K2O;MnO;H2O;P2O5;Cr2O3;NiO
tho;Tholeiite;Murase and McBirney (1973);50.71;4.68;14.48;1.7;4.89;9.07;8.83;3.16;0.77;0.22;1.04;0.36;0;0
aba;Alkali basalt;Carmichael et al. (1974);44.8;11.07;13.86;1.96;2.91;9.63;10.16;3.19;1.09;0.17;0.73;0.55;0;0
kom;Komatiite;Arndt (2002 pers. comms. to B. Fegley);47.1;29.6;4.04;0.24;0;11.53;5.44;0.46;0.09;0.22;0;0.05;0;0
dun;Dunite;MacDonald (1972);40.2;43.2;0.8;0.2;1.9;11.9;0.8;0.3;0.1;0.2;0.4;0.1;0;0
cai;Type B1 CAI;MacPherson et al. (1988);29.1;10.2;29.6;1.3;0;0.6;28.8;0.18;0.1;0;0;0;0.04;0.06
bit;Bishop Tuff; Gualda et al. (2012);75.6;0.21;13;1.1;0;0.25;0.95;3.35;5.55;0;0;0;0;0
cab;Type B CAI;Richter (2002, 2007);46;11.48;19.39;0;0;0;23.12;0;0;0;0;0;0;0