;O;Mg;Ca;Al;Si;Na;K;Fe;Ti;Cr
1550.0;0.3742559498485046;3.1227291857019764e-05;0.0;1.3642344192835066e-10;0.0004968139090736649;0.0;0.6252160088141413;0.0;0.0;0.0
1739.0;0.29757783366739954;0.00016264296452752987;0.0;4.344342800012955e-09;0.00426354541865766;0.0;0.6979959736050725;0.0;0.0;0.0
1830.0;0.3619641295434041;0.00025081282697997777;0.0;1.541258261456237e-08;0.008234807246490231;0.0;0.629550234970543;0.0;0.0;0.0
1961.0;0.3899290032965269;0.0004796661275664224;0.0;8.168886850630057e-08;0.021142106488262577;0.0;0.5884491423987755;0.0;0.0;0.0
